{
    "id": 196,
    "name": "account.invoice.tax",
    "description": "Invoice Tax",
    "modelFields": {
        "display_name": {
            "string": "Display Name",
            "type": "char"
        },
        "company_id": {
            "string": "Company",
            "type": "many2one"
        },
        "name": {
            "string": "Tax Description",
            "type": "char"
        },
        "currency_id": {
            "string": "Currency",
            "type": "many2one"
        },
        "manual": {
            "string": "Manual",
            "type": "boolean"
        },
        "base": {
            "string": "Base",
            "type": "monetary"
        },
        "amount_total": {
            "string": "Amount",
            "type": "monetary"
        },
        "create_uid": {
            "string": "Created by",
            "type": "many2one"
        },
        "amount_rounding": {
            "string": "Amount Rounding",
            "type": "monetary"
        },
        "invoice_id": {
            "string": "Invoice",
            "type": "many2one"
        },
        "create_date": {
            "string": "Created on",
            "type": "datetime"
        },
        "tax_id": {
            "string": "Tax",
            "type": "many2one"
        },
        "amount": {
            "string": "Amount",
            "type": "monetary"
        },
        "write_date": {
            "string": "Last Updated on",
            "type": "datetime"
        },
        "id": {
            "string": "ID",
            "type": "integer"
        },
        "account_id": {
            "string": "Tax Account",
            "type": "many2one"
        },
        "write_uid": {
            "string": "Last Updated by",
            "type": "many2one"
        },
        "account_analytic_id": {
            "string": "Analytic account",
            "type": "many2one"
        },
        "branch_id": {
            "string": "Branch",
            "type": "many2one"
        },
        "rabill_id": {
            "string": "RA Bill",
            "type": "many2one"
        },
        "sequence": {
            "string": "Sequence",
            "type": "integer",
            "help": "Gives the sequence order when displaying a list of invoice tax."
        },
        "__last_update": {
            "string": "Last Modified on",
            "type": "datetime"
        }
    }
}