{
    "id": 185,
    "name": "account.group",
    "description": "account.group",
    "modelFields": {
        "display_name": {
            "string": "Display Name",
            "type": "char"
        },
        "name": {
            "string": "Name",
            "type": "char"
        },
        "id": {
            "string": "ID",
            "type": "integer"
        },
        "parent_id": {
            "string": "Parent",
            "type": "many2one"
        },
        "write_uid": {
            "string": "Last Updated by",
            "type": "many2one"
        },
        "write_date": {
            "string": "Last Updated on",
            "type": "datetime"
        },
        "parent_right": {
            "string": "Right Parent",
            "type": "integer"
        },
        "code_prefix": {
            "string": "Code Prefix",
            "type": "char"
        },
        "create_uid": {
            "string": "Created by",
            "type": "many2one"
        },
        "__last_update": {
            "string": "Last Modified on",
            "type": "datetime"
        },
        "parent_left": {
            "string": "Left Parent",
            "type": "integer"
        },
        "create_date": {
            "string": "Created on",
            "type": "datetime"
        }
    }
}