{
    "id": 215,
    "name": "account.bank.accounts.wizard",
    "description": "account.bank.accounts.wizard",
    "modelFields": {
        "account_type": {
            "string": "Account Type",
            "type": "selection"
        },
        "display_name": {
            "string": "Display Name",
            "type": "char"
        },
        "write_uid": {
            "string": "Last Updated by",
            "type": "many2one"
        },
        "acc_name": {
            "string": "Account Name.",
            "type": "char"
        },
        "create_date": {
            "string": "Created on",
            "type": "datetime"
        },
        "id": {
            "string": "ID",
            "type": "integer"
        },
        "create_uid": {
            "string": "Created by",
            "type": "many2one"
        },
        "write_date": {
            "string": "Last Updated on",
            "type": "datetime"
        },
        "currency_id": {
            "string": "Account Currency",
            "type": "many2one",
            "help": "Forces all moves for this account to have this secondary currency."
        },
        "bank_account_id": {
            "string": "Bank Account",
            "type": "many2one"
        },
        "__last_update": {
            "string": "Last Modified on",
            "type": "datetime"
        }
    }
}