{
    "id": 206,
    "name": "account.partial.reconcile",
    "description": "Partial Reconcile",
    "modelFields": {
        "amount": {
            "string": "Amount",
            "type": "monetary",
            "help": "Amount concerned by this matching. Assumed to be always positive"
        },
        "company_id": {
            "string": "Currency",
            "type": "many2one"
        },
        "debit_move_id": {
            "string": "Debit Move",
            "type": "many2one"
        },
        "company_currency_id": {
            "string": "Currency",
            "type": "many2one",
            "help": "Utility field to express amount currency"
        },
        "id": {
            "string": "ID",
            "type": "integer"
        },
        "display_name": {
            "string": "Display Name",
            "type": "char"
        },
        "write_uid": {
            "string": "Last Updated by",
            "type": "many2one"
        },
        "write_date": {
            "string": "Last Updated on",
            "type": "datetime"
        },
        "currency_id": {
            "string": "Currency",
            "type": "many2one"
        },
        "max_date": {
            "string": "Max Date of Matched Lines",
            "type": "date",
            "help": "Technical field used to determine at which date this reconciliation needs to be shown on the aged receivable/payable reports."
        },
        "full_reconcile_id": {
            "string": "Full Reconcile",
            "type": "many2one"
        },
        "branch_id": {
            "string": "Branch",
            "type": "many2one"
        },
        "amount_currency": {
            "string": "Amount in Currency",
            "type": "monetary"
        },
        "__last_update": {
            "string": "Last Modified on",
            "type": "datetime"
        },
        "create_uid": {
            "string": "Created by",
            "type": "many2one"
        },
        "credit_move_id": {
            "string": "Credit Move",
            "type": "many2one"
        },
        "create_date": {
            "string": "Created on",
            "type": "datetime"
        }
    }
}