{
    "id": 208,
    "name": "account.account.template",
    "description": "Templates for Accounts",
    "modelFields": {
        "reconcile": {
            "string": "Allow Invoices & payments Matching",
            "type": "boolean",
            "help": "Check this option if you want the user to reconcile entries in this account."
        },
        "chart_template_id": {
            "string": "Chart Template",
            "type": "many2one",
            "help": "This optional field allow you to link an account template to a specific chart template that may differ from the one its root parent belongs to. This allow you to define chart templates that extend another and complete it with few new accounts (You don't need to define the whole structure that is common to both several times)."
        },
        "company_id": {
            "string": "Company",
            "type": "many2one"
        },
        "name": {
            "string": "Name",
            "type": "char"
        },
        "currency_id": {
            "string": "Account Currency",
            "type": "many2one",
            "help": "Forces all moves for this account to have this secondary currency."
        },
        "display_name": {
            "string": "Display Name",
            "type": "char"
        },
        "write_uid": {
            "string": "Last Updated by",
            "type": "many2one"
        },
        "write_date": {
            "string": "Last Updated on",
            "type": "datetime"
        },
        "id": {
            "string": "ID",
            "type": "integer"
        },
        "group_id": {
            "string": "Group",
            "type": "many2one"
        },
        "__last_update": {
            "string": "Last Modified on",
            "type": "datetime"
        },
        "code": {
            "string": "Code",
            "type": "char"
        },
        "branch_id": {
            "string": "Branch",
            "type": "many2one"
        },
        "tax_ids": {
            "string": "Default Taxes",
            "type": "many2many"
        },
        "nocreate": {
            "string": "Optional Create",
            "type": "boolean",
            "help": "If checked, the new chart of accounts will not contain this by default."
        },
        "user_type_id": {
            "string": "Type",
            "type": "many2one",
            "help": "These types are defined according to your country. The type contains more information about the account and its specificities."
        },
        "create_uid": {
            "string": "Created by",
            "type": "many2one"
        },
        "tag_ids": {
            "string": "Account tag",
            "type": "many2many",
            "help": "Optional tags you may want to assign for custom reporting"
        },
        "note": {
            "string": "Note",
            "type": "text"
        },
        "create_date": {
            "string": "Created on",
            "type": "datetime"
        }
    }
}