{
    "id": 398,
    "name": "asset.modify",
    "description": "Modify Asset",
    "modelFields": {
        "method_period": {
            "string": "Period Length",
            "type": "integer"
        },
        "method_end": {
            "string": "Ending date",
            "type": "date"
        },
        "name": {
            "string": "Reason",
            "type": "text"
        },
        "id": {
            "string": "ID",
            "type": "integer"
        },
        "display_name": {
            "string": "Display Name",
            "type": "char"
        },
        "write_uid": {
            "string": "Last Updated by",
            "type": "many2one"
        },
        "asset_method_time": {
            "string": "Asset Method Time",
            "type": "char"
        },
        "write_date": {
            "string": "Last Updated on",
            "type": "datetime"
        },
        "method_number": {
            "string": "Number of Depreciations",
            "type": "integer"
        },
        "create_uid": {
            "string": "Created by",
            "type": "many2one"
        },
        "__last_update": {
            "string": "Last Modified on",
            "type": "datetime"
        },
        "create_date": {
            "string": "Created on",
            "type": "datetime"
        }
    }
}