{
    "id": 62,
    "name": "base.language.install",
    "description": "Install Language",
    "modelFields": {
        "write_date": {
            "string": "Last Updated on",
            "type": "datetime"
        },
        "display_name": {
            "string": "Display Name",
            "type": "char"
        },
        "website_ids": {
            "string": "Websites to translate",
            "type": "many2many"
        },
        "write_uid": {
            "string": "Last Updated by",
            "type": "many2one"
        },
        "create_date": {
            "string": "Created on",
            "type": "datetime"
        },
        "id": {
            "string": "ID",
            "type": "integer"
        },
        "create_uid": {
            "string": "Created by",
            "type": "many2one"
        },
        "overwrite": {
            "string": "Overwrite Existing Terms",
            "type": "boolean",
            "help": "If you check this box, your customized translations will be overwritten and replaced by the official ones."
        },
        "lang": {
            "string": "Language",
            "type": "selection"
        },
        "state": {
            "string": "Status",
            "type": "selection"
        },
        "__last_update": {
            "string": "Last Modified on",
            "type": "datetime"
        }
    }
}