{
    "id": 65,
    "name": "base.module.uninstall",
    "description": "Module Uninstallation",
    "modelFields": {
        "write_date": {
            "string": "Last Updated on",
            "type": "datetime"
        },
        "display_name": {
            "string": "Display Name",
            "type": "char"
        },
        "write_uid": {
            "string": "Last Updated by",
            "type": "many2one"
        },
        "create_date": {
            "string": "Created on",
            "type": "datetime"
        },
        "module_id": {
            "string": "Module",
            "type": "many2one"
        },
        "id": {
            "string": "ID",
            "type": "integer"
        },
        "create_uid": {
            "string": "Created by",
            "type": "many2one"
        },
        "module_ids": {
            "string": "Impacted modules",
            "type": "many2many"
        },
        "model_ids": {
            "string": "Impacted data models",
            "type": "many2many"
        },
        "show_all": {
            "string": "Show All",
            "type": "boolean"
        },
        "__last_update": {
            "string": "Last Modified on",
            "type": "datetime"
        }
    }
}