{
    "id": 66,
    "name": "base.language.export",
    "description": "base.language.export",
    "modelFields": {
        "format": {
            "string": "File Format",
            "type": "selection"
        },
        "display_name": {
            "string": "Display Name",
            "type": "char"
        },
        "name": {
            "string": "File Name",
            "type": "char"
        },
        "id": {
            "string": "ID",
            "type": "integer"
        },
        "write_uid": {
            "string": "Last Updated by",
            "type": "many2one"
        },
        "modules": {
            "string": "Apps To Export",
            "type": "many2many"
        },
        "write_date": {
            "string": "Last Updated on",
            "type": "datetime"
        },
        "data": {
            "string": "File",
            "type": "binary"
        },
        "create_uid": {
            "string": "Created by",
            "type": "many2one"
        },
        "__last_update": {
            "string": "Last Modified on",
            "type": "datetime"
        },
        "lang": {
            "string": "Language",
            "type": "selection"
        },
        "state": {
            "string": "State",
            "type": "selection"
        },
        "create_date": {
            "string": "Created on",
            "type": "datetime"
        }
    }
}