{
    "id": 1,
    "name": "base",
    "description": "base",
    "modelFields": {
        "display_name": {
            "string": "Display Name",
            "type": "char"
        },
        "__last_update": {
            "string": "Last Modified on",
            "type": "datetime"
        },
        "id": {
            "string": "ID",
            "type": "integer"
        }
    }
}