{
    "id": 64,
    "name": "base.module.upgrade",
    "description": "Module Upgrade",
    "modelFields": {
        "write_date": {
            "string": "Last Updated on",
            "type": "datetime"
        },
        "display_name": {
            "string": "Display Name",
            "type": "char"
        },
        "write_uid": {
            "string": "Last Updated by",
            "type": "many2one"
        },
        "create_date": {
            "string": "Created on",
            "type": "datetime"
        },
        "create_uid": {
            "string": "Created by",
            "type": "many2one"
        },
        "id": {
            "string": "ID",
            "type": "integer"
        },
        "__last_update": {
            "string": "Last Modified on",
            "type": "datetime"
        },
        "module_info": {
            "string": "Apps to Update",
            "type": "text"
        }
    }
}