{
    "id": 662,
    "name": "cancel.wizard",
    "description": "Wizard for getting Reason for cancel the subscription.",
    "modelFields": {
        "reason_id": {
            "string": "Reason",
            "type": "many2one"
        },
        "display_name": {
            "string": "Display Name",
            "type": "char"
        },
        "write_uid": {
            "string": "Last Updated by",
            "type": "many2one"
        },
        "is_cancel": {
            "string": "Cancel",
            "type": "boolean"
        },
        "create_date": {
            "string": "Created on",
            "type": "datetime"
        },
        "id": {
            "string": "ID",
            "type": "integer"
        },
        "comment": {
            "string": "Comment",
            "type": "text"
        },
        "create_uid": {
            "string": "Created by",
            "type": "many2one"
        },
        "write_date": {
            "string": "Last Updated on",
            "type": "datetime"
        },
        "__last_update": {
            "string": "Last Modified on",
            "type": "datetime"
        }
    }
}