{
    "id": 472,
    "name": "contractor.list",
    "description": "contractor.list",
    "modelFields": {
        "write_date": {
            "string": "Last Updated on",
            "type": "datetime"
        },
        "display_name": {
            "string": "Display Name",
            "type": "char"
        },
        "quotation_comp_contractor_id": {
            "string": "Quotation",
            "type": "many2one"
        },
        "create_date": {
            "string": "Created on",
            "type": "datetime"
        },
        "id": {
            "string": "ID",
            "type": "integer"
        },
        "create_uid": {
            "string": "Created by",
            "type": "many2one"
        },
        "write_uid": {
            "string": "Last Updated by",
            "type": "many2one"
        },
        "is_contractor": {
            "string": "Use Contractor",
            "type": "boolean"
        },
        "contractor_id": {
            "string": "Contractor",
            "type": "many2one"
        },
        "__last_update": {
            "string": "Last Modified on",
            "type": "datetime"
        }
    }
}