{
    "id": 684,
    "name": "crm.lead.convert2task",
    "description": "crm.lead.convert2task",
    "modelFields": {
        "lead_id": {
            "string": "Lead",
            "type": "many2one"
        },
        "partner_id": {
            "string": "Customer",
            "type": "many2one"
        },
        "write_uid": {
            "string": "Last Updated by",
            "type": "many2one"
        },
        "create_date": {
            "string": "Created on",
            "type": "datetime"
        },
        "id": {
            "string": "ID",
            "type": "integer"
        },
        "display_name": {
            "string": "Display Name",
            "type": "char"
        },
        "action": {
            "string": "Related Customer",
            "type": "selection"
        },
        "create_uid": {
            "string": "Created by",
            "type": "many2one"
        },
        "write_date": {
            "string": "Last Updated on",
            "type": "datetime"
        },
        "project_id": {
            "string": "Project",
            "type": "many2one"
        },
        "__last_update": {
            "string": "Last Modified on",
            "type": "datetime"
        }
    }
}