{
    "id": 524,
    "name": "delivery.schedule",
    "description": "delivery.schedule",
    "modelFields": {
        "display_name": {
            "string": "Display Name",
            "type": "char"
        },
        "product_id": {
            "string": "Product",
            "type": "many2one"
        },
        "id": {
            "string": "ID",
            "type": "integer"
        },
        "write_uid": {
            "string": "Last Updated by",
            "type": "many2one"
        },
        "write_date": {
            "string": "Last Updated on",
            "type": "datetime"
        },
        "delivery_id": {
            "string": "Purchase",
            "type": "many2one"
        },
        "__last_update": {
            "string": "Last Modified on",
            "type": "datetime"
        },
        "create_uid": {
            "string": "Created by",
            "type": "many2one"
        },
        "quantity_to_deliver": {
            "string": "Quantity To Deliver",
            "type": "integer"
        },
        "schedule_date": {
            "string": "Schedule Delivery Date",
            "type": "datetime"
        },
        "is_shipment_created": {
            "string": "Is Shipment Created",
            "type": "boolean"
        },
        "create_date": {
            "string": "Created on",
            "type": "datetime"
        }
    }
}