{
    "id": 577,
    "name": "event.registration",
    "description": "Attendee",
    "modelFields": {
        "date_closed": {
            "string": "Attended Date",
            "type": "datetime"
        },
        "message_unread_counter": {
            "string": "Unread Messages Counter",
            "type": "integer",
            "help": "Number of unread messages"
        },
        "company_id": {
            "string": "Company",
            "type": "many2one"
        },
        "message_channel_ids": {
            "string": "Followers (Channels)",
            "type": "many2many"
        },
        "event_begin_date": {
            "string": "Event Start Date",
            "type": "datetime"
        },
        "display_name": {
            "string": "Display Name",
            "type": "char"
        },
        "event_id": {
            "string": "Event",
            "type": "many2one"
        },
        "write_date": {
            "string": "Last Updated on",
            "type": "datetime"
        },
        "message_ids": {
            "string": "Messages",
            "type": "one2many"
        },
        "phone": {
            "string": "Phone",
            "type": "char"
        },
        "email": {
            "string": "Email",
            "type": "char"
        },
        "message_is_follower": {
            "string": "Is Follower",
            "type": "boolean"
        },
        "state": {
            "string": "Status",
            "type": "selection"
        },
        "name": {
            "string": "Attendee Name",
            "type": "char"
        },
        "partner_id": {
            "string": "Contact",
            "type": "many2one"
        },
        "date_open": {
            "string": "Registration Date",
            "type": "datetime"
        },
        "event_end_date": {
            "string": "Event End Date",
            "type": "datetime"
        },
        "id": {
            "string": "ID",
            "type": "integer"
        },
        "website_message_ids": {
            "string": "Website Messages",
            "type": "one2many",
            "help": "Website communication history"
        },
        "write_uid": {
            "string": "Last Updated by",
            "type": "many2one"
        },
        "event_ticket_id": {
            "string": "Event Ticket",
            "type": "many2one"
        },
        "create_uid": {
            "string": "Created by",
            "type": "many2one"
        },
        "message_needaction_counter": {
            "string": "Number of Actions",
            "type": "integer",
            "help": "Number of messages which requires an action"
        },
        "sale_order_line_id": {
            "string": "Sales Order Line",
            "type": "many2one"
        },
        "message_unread": {
            "string": "Unread Messages",
            "type": "boolean",
            "help": "If checked new messages require your attention."
        },
        "message_follower_ids": {
            "string": "Followers",
            "type": "one2many"
        },
        "sale_order_id": {
            "string": "Source Sales Order",
            "type": "many2one"
        },
        "message_needaction": {
            "string": "Action Needed",
            "type": "boolean",
            "help": "If checked, new messages require your attention."
        },
        "origin": {
            "string": "Source Document",
            "type": "char",
            "help": "Reference of the document that created the registration, for example a sales order"
        },
        "create_date": {
            "string": "Created on",
            "type": "datetime"
        },
        "message_last_post": {
            "string": "Last Message Date",
            "type": "datetime",
            "help": "Date of the last message posted on the record."
        },
        "message_partner_ids": {
            "string": "Followers (Partners)",
            "type": "many2many"
        },
        "__last_update": {
            "string": "Last Modified on",
            "type": "datetime"
        }
    }
}