{
    "id": 641,
    "name": "forum.post",
    "description": "Forum Post",
    "modelFields": {
        "display_name": {
            "string": "Display Name",
            "type": "char"
        },
        "vote_count": {
            "string": "Total Votes",
            "type": "integer"
        },
        "create_date": {
            "string": "Asked on",
            "type": "datetime"
        },
        "message_unread_counter": {
            "string": "Unread Messages Counter",
            "type": "integer",
            "help": "Number of unread messages"
        },
        "message_ids": {
            "string": "Messages",
            "type": "one2many"
        },
        "vote_ids": {
            "string": "Votes",
            "type": "one2many"
        },
        "karma_accept": {
            "string": "Convert comment to answer",
            "type": "integer"
        },
        "can_downvote": {
            "string": "Can Downvote",
            "type": "boolean"
        },
        "bump_date": {
            "string": "Bumped on",
            "type": "datetime",
            "help": "Technical field allowing to bump a question. Writing on this field will trigger a write on write_date and therefore bump the post. Directly writing on write_date is currently not supported and this field is a workaround."
        },
        "user_vote": {
            "string": "My Vote",
            "type": "integer"
        },
        "user_favourite": {
            "string": "Is Favourite",
            "type": "boolean"
        },
        "can_answer": {
            "string": "Can Answer",
            "type": "boolean"
        },
        "can_edit": {
            "string": "Can Edit",
            "type": "boolean"
        },
        "can_ask": {
            "string": "Can Ask",
            "type": "boolean"
        },
        "state": {
            "string": "Status",
            "type": "selection"
        },
        "self_reply": {
            "string": "Reply to own question",
            "type": "boolean"
        },
        "can_unlink": {
            "string": "Can Unlink",
            "type": "boolean"
        },
        "write_date": {
            "string": "Update on",
            "type": "datetime"
        },
        "website_id": {
            "string": "Website",
            "type": "many2one"
        },
        "content_link": {
            "string": "URL",
            "type": "char",
            "help": "URL of Link Articles"
        },
        "uid_has_answered": {
            "string": "Has Answered",
            "type": "boolean"
        },
        "message_unread": {
            "string": "Unread Messages",
            "type": "boolean",
            "help": "If checked new messages require your attention."
        },
        "message_follower_ids": {
            "string": "Followers",
            "type": "one2many"
        },
        "write_uid": {
            "string": "Updated by",
            "type": "many2one"
        },
        "message_needaction_counter": {
            "string": "Number of Actions",
            "type": "integer",
            "help": "Number of messages which requires an action"
        },
        "content": {
            "string": "Content",
            "type": "html"
        },
        "karma_edit": {
            "string": "Karma to edit",
            "type": "integer"
        },
        "can_flag": {
            "string": "Can Flag",
            "type": "boolean"
        },
        "has_validated_answer": {
            "string": "Is answered",
            "type": "boolean"
        },
        "can_close": {
            "string": "Can Close",
            "type": "boolean"
        },
        "plain_content": {
            "string": "Plain Content",
            "type": "text"
        },
        "can_upvote": {
            "string": "Can Upvote",
            "type": "boolean"
        },
        "karma_comment": {
            "string": "Karma to comment",
            "type": "integer"
        },
        "message_partner_ids": {
            "string": "Followers (Partners)",
            "type": "many2many"
        },
        "__last_update": {
            "string": "Last Modified on",
            "type": "datetime"
        },
        "views": {
            "string": "Number of Views",
            "type": "integer"
        },
        "favourite_ids": {
            "string": "Favourite",
            "type": "many2many"
        },
        "message_channel_ids": {
            "string": "Followers (Channels)",
            "type": "many2many"
        },
        "name": {
            "string": "Title",
            "type": "char"
        },
        "can_accept": {
            "string": "Can Accept",
            "type": "boolean"
        },
        "can_comment_convert": {
            "string": "Can Convert to Comment",
            "type": "boolean"
        },
        "parent_id": {
            "string": "Question",
            "type": "many2one"
        },
        "can_moderate": {
            "string": "Can Moderate",
            "type": "boolean"
        },
        "moderator_id": {
            "string": "Reviewed by",
            "type": "many2one"
        },
        "can_display_biography": {
            "string": "Is the author's biography visible from his post",
            "type": "boolean"
        },
        "can_view": {
            "string": "Can View",
            "type": "boolean"
        },
        "post_type": {
            "string": "Type",
            "type": "selection"
        },
        "karma_close": {
            "string": "Karma to close",
            "type": "integer"
        },
        "flag_user_id": {
            "string": "Flagged by",
            "type": "many2one"
        },
        "forum_id": {
            "string": "Forum",
            "type": "many2one"
        },
        "closed_reason_id": {
            "string": "Reason",
            "type": "many2one"
        },
        "message_is_follower": {
            "string": "Is Follower",
            "type": "boolean"
        },
        "tag_ids": {
            "string": "Tags",
            "type": "many2many"
        },
        "child_ids": {
            "string": "Answers",
            "type": "one2many"
        },
        "karma_comment_convert": {
            "string": "Karma to convert comment to answer",
            "type": "integer"
        },
        "karma_flag": {
            "string": "Flag a post as offensive",
            "type": "integer"
        },
        "website_meta_title": {
            "string": "Website meta title",
            "type": "char"
        },
        "create_uid": {
            "string": "Created by",
            "type": "many2one"
        },
        "active": {
            "string": "Active",
            "type": "boolean"
        },
        "website_meta_keywords": {
            "string": "Website meta keywords",
            "type": "char"
        },
        "closed_date": {
            "string": "Closed on",
            "type": "datetime"
        },
        "can_post": {
            "string": "Can Automatically be Validated",
            "type": "boolean"
        },
        "website_message_ids": {
            "string": "Website Messages",
            "type": "one2many",
            "help": "Website communication history"
        },
        "closed_uid": {
            "string": "Closed by",
            "type": "many2one"
        },
        "id": {
            "string": "ID",
            "type": "integer"
        },
        "is_correct": {
            "string": "Correct",
            "type": "boolean",
            "help": "Correct answer or answer accepted"
        },
        "can_comment": {
            "string": "Can Comment",
            "type": "boolean"
        },
        "message_needaction": {
            "string": "Action Needed",
            "type": "boolean",
            "help": "If checked, new messages require your attention."
        },
        "website_meta_description": {
            "string": "Website meta description",
            "type": "text"
        },
        "favourite_count": {
            "string": "Favorite Count",
            "type": "integer"
        },
        "karma_unlink": {
            "string": "Karma to unlink",
            "type": "integer"
        },
        "child_count": {
            "string": "Number of answers",
            "type": "integer"
        },
        "message_last_post": {
            "string": "Last Message Date",
            "type": "datetime",
            "help": "Date of the last message posted on the record."
        },
        "relevancy": {
            "string": "Relevance",
            "type": "float"
        }
    }
}