{
    "id": 643,
    "name": "forum.post.vote",
    "description": "Vote",
    "modelFields": {
        "user_id": {
            "string": "User",
            "type": "many2one"
        },
        "create_date": {
            "string": "Create Date",
            "type": "datetime"
        },
        "id": {
            "string": "ID",
            "type": "integer"
        },
        "display_name": {
            "string": "Display Name",
            "type": "char"
        },
        "post_id": {
            "string": "Post",
            "type": "many2one"
        },
        "recipient_id": {
            "string": "To",
            "type": "many2one"
        },
        "write_uid": {
            "string": "Last Updated by",
            "type": "many2one"
        },
        "vote": {
            "string": "Vote",
            "type": "selection"
        },
        "write_date": {
            "string": "Last Updated on",
            "type": "datetime"
        },
        "forum_id": {
            "string": "Forum",
            "type": "many2one"
        },
        "create_uid": {
            "string": "Created by",
            "type": "many2one"
        },
        "__last_update": {
            "string": "Last Modified on",
            "type": "datetime"
        }
    }
}