{
    "id": 325,
    "name": "hr.applicant",
    "description": "Applicant",
    "modelFields": {
        "display_name": {
            "string": "Display Name",
            "type": "char"
        },
        "message_is_follower": {
            "string": "Is Follower",
            "type": "boolean"
        },
        "activity_date_deadline": {
            "string": "Next Activity Deadline",
            "type": "date"
        },
        "emp_id": {
            "string": "Employee",
            "type": "many2one",
            "help": "Employee linked to the applicant."
        },
        "job_id": {
            "string": "Applied Job",
            "type": "many2one"
        },
        "__last_update": {
            "string": "Last Modified on",
            "type": "datetime"
        },
        "attachment_number": {
            "string": "Number of Attachments",
            "type": "integer"
        },
        "priority": {
            "string": "Appreciation",
            "type": "selection"
        },
        "date_last_stage_update": {
            "string": "Last Stage Update",
            "type": "datetime"
        },
        "reference": {
            "string": "Referred By",
            "type": "char"
        },
        "source_id": {
            "string": "Source",
            "type": "many2one",
            "help": "This is the source of the link, e.g. Search Engine, another domain, or name of email list"
        },
        "partner_phone": {
            "string": "Phone",
            "type": "char"
        },
        "create_date": {
            "string": "Creation Date",
            "type": "datetime"
        },
        "write_date": {
            "string": "Update Date",
            "type": "datetime"
        },
        "color": {
            "string": "Color Index",
            "type": "integer"
        },
        "write_uid": {
            "string": "Last Updated by",
            "type": "many2one"
        },
        "employee_name": {
            "string": "Employee Name",
            "type": "char"
        },
        "message_needaction_counter": {
            "string": "Number of Actions",
            "type": "integer",
            "help": "Number of messages which requires an action"
        },
        "probability": {
            "string": "Probability",
            "type": "float"
        },
        "categ_ids": {
            "string": "Tags",
            "type": "many2many"
        },
        "message_unread": {
            "string": "Unread Messages",
            "type": "boolean",
            "help": "If checked new messages require your attention."
        },
        "activity_ids": {
            "string": "Activities",
            "type": "one2many"
        },
        "message_follower_ids": {
            "string": "Followers",
            "type": "one2many"
        },
        "partner_name": {
            "string": "Applicant's Name",
            "type": "char"
        },
        "salary_proposed_extra": {
            "string": "Proposed Salary Extra",
            "type": "char",
            "help": "Salary Proposed by the Organisation, extra advantages"
        },
        "salary_proposed": {
            "string": "Proposed Salary",
            "type": "float",
            "help": "Salary Proposed by the Organisation"
        },
        "activity_type_id": {
            "string": "Next Activity Type",
            "type": "many2one"
        },
        "message_partner_ids": {
            "string": "Followers (Partners)",
            "type": "many2many"
        },
        "department_id": {
            "string": "Department",
            "type": "many2one"
        },
        "message_unread_counter": {
            "string": "Unread Messages Counter",
            "type": "integer",
            "help": "Number of unread messages"
        },
        "description": {
            "string": "Description",
            "type": "text"
        },
        "company_id": {
            "string": "Company",
            "type": "many2one"
        },
        "message_channel_ids": {
            "string": "Followers (Channels)",
            "type": "many2many"
        },
        "name": {
            "string": "Subject / Application Name",
            "type": "char"
        },
        "partner_id": {
            "string": "Contact",
            "type": "many2one"
        },
        "stage_id": {
            "string": "Stage",
            "type": "many2one"
        },
        "activity_user_id": {
            "string": "Responsible",
            "type": "many2one"
        },
        "message_ids": {
            "string": "Messages",
            "type": "one2many"
        },
        "activity_summary": {
            "string": "Next Activity Summary",
            "type": "char"
        },
        "last_stage_id": {
            "string": "Last Stage",
            "type": "many2one",
            "help": "Stage of the applicant before being in the current stage. Used for lost cases analysis."
        },
        "partner_mobile": {
            "string": "Mobile",
            "type": "char"
        },
        "active": {
            "string": "Active",
            "type": "boolean",
            "help": "If the active field is set to false, it will allow you to hide the case without removing it."
        },
        "date_closed": {
            "string": "Closed",
            "type": "datetime"
        },
        "create_uid": {
            "string": "Created by",
            "type": "many2one"
        },
        "salary_expected_extra": {
            "string": "Expected Salary Extra",
            "type": "char",
            "help": "Salary Expected by Applicant, extra advantages"
        },
        "day_open": {
            "string": "Days to Open",
            "type": "float"
        },
        "medium_id": {
            "string": "Medium",
            "type": "many2one",
            "help": "This is the method of delivery, e.g. Postcard, Email, or Banner Ad"
        },
        "attachment_ids": {
            "string": "Attachments",
            "type": "one2many"
        },
        "user_id": {
            "string": "Responsible",
            "type": "many2one"
        },
        "date_open": {
            "string": "Assigned",
            "type": "datetime"
        },
        "campaign_id": {
            "string": "Campaign",
            "type": "many2one",
            "help": "This is a name that helps you keep track of your different campaign efforts, e.g. Fall_Drive, Christmas_Special"
        },
        "website_message_ids": {
            "string": "Website Messages",
            "type": "one2many",
            "help": "Website communication history"
        },
        "message_last_post": {
            "string": "Last Message Date",
            "type": "datetime",
            "help": "Date of the last message posted on the record."
        },
        "id": {
            "string": "ID",
            "type": "integer"
        },
        "availability": {
            "string": "Availability",
            "type": "date",
            "help": "The date at which the applicant will be available to start working"
        },
        "day_close": {
            "string": "Days to Close",
            "type": "float"
        },
        "activity_state": {
            "string": "State",
            "type": "selection",
            "help": "Status based on activities\nOverdue: Due date is already passed\nToday: Activity date is today\nPlanned: Future activities."
        },
        "email_from": {
            "string": "Email",
            "type": "char",
            "help": "These people will receive email."
        },
        "salary_expected": {
            "string": "Expected Salary",
            "type": "float",
            "help": "Salary Expected by Applicant"
        },
        "delay_close": {
            "string": "Delay to Close",
            "type": "float",
            "help": "Number of days to close"
        },
        "message_needaction": {
            "string": "Action Needed",
            "type": "boolean",
            "help": "If checked, new messages require your attention."
        },
        "email_cc": {
            "string": "Watchers Emails",
            "type": "text",
            "help": "These email addresses will be added to the CC field of all inbound and outbound emails for this record before being sent. Separate multiple email addresses with a comma"
        },
        "user_email": {
            "string": "User Email",
            "type": "char"
        },
        "type_id": {
            "string": "Degree",
            "type": "many2one"
        }
    }
}