{
    "id": 376,
    "name": "hr.expense",
    "description": "Expense",
    "modelFields": {
        "product_uom_id": {
            "string": "Unit of Measure",
            "type": "many2one"
        },
        "message_unread_counter": {
            "string": "Unread Messages Counter",
            "type": "integer",
            "help": "Number of unread messages"
        },
        "description": {
            "string": "Description",
            "type": "text"
        },
        "employee_id": {
            "string": "Employee",
            "type": "many2one"
        },
        "message_channel_ids": {
            "string": "Followers (Channels)",
            "type": "many2many"
        },
        "untaxed_amount": {
            "string": "Subtotal",
            "type": "float"
        },
        "currency_id": {
            "string": "Currency",
            "type": "many2one"
        },
        "display_name": {
            "string": "Display Name",
            "type": "char"
        },
        "message_ids": {
            "string": "Messages",
            "type": "one2many"
        },
        "attachment_number": {
            "string": "Number of Attachments",
            "type": "integer"
        },
        "sheet_id": {
            "string": "Expense Report",
            "type": "many2one"
        },
        "company_id": {
            "string": "Company",
            "type": "many2one"
        },
        "total_amount": {
            "string": "Total",
            "type": "float"
        },
        "reference": {
            "string": "Bill Reference",
            "type": "char"
        },
        "message_is_follower": {
            "string": "Is Follower",
            "type": "boolean"
        },
        "analytic_account_id": {
            "string": "Analytic Account",
            "type": "many2one"
        },
        "unit_amount": {
            "string": "Unit Price",
            "type": "float"
        },
        "name": {
            "string": "Expense Description",
            "type": "char"
        },
        "date": {
            "string": "Expense Date",
            "type": "date"
        },
        "create_uid": {
            "string": "Created by",
            "type": "many2one"
        },
        "quantity": {
            "string": "Quantity",
            "type": "float"
        },
        "write_date": {
            "string": "Last Updated on",
            "type": "datetime"
        },
        "product_id": {
            "string": "Product",
            "type": "many2one"
        },
        "id": {
            "string": "ID",
            "type": "integer"
        },
        "website_message_ids": {
            "string": "Website Messages",
            "type": "one2many",
            "help": "Website communication history"
        },
        "message_last_post": {
            "string": "Last Message Date",
            "type": "datetime",
            "help": "Date of the last message posted on the record."
        },
        "write_uid": {
            "string": "Last Updated by",
            "type": "many2one"
        },
        "message_needaction_counter": {
            "string": "Number of Actions",
            "type": "integer",
            "help": "Number of messages which requires an action"
        },
        "payment_mode": {
            "string": "Payment By",
            "type": "selection"
        },
        "is_refused": {
            "string": "Explicitely Refused by manager or acccountant",
            "type": "boolean"
        },
        "message_unread": {
            "string": "Unread Messages",
            "type": "boolean",
            "help": "If checked new messages require your attention."
        },
        "tax_ids": {
            "string": "Taxes",
            "type": "many2many"
        },
        "message_follower_ids": {
            "string": "Followers",
            "type": "one2many"
        },
        "sale_order_id": {
            "string": "Sale Order",
            "type": "many2one"
        },
        "state": {
            "string": "Status",
            "type": "selection",
            "help": "Status of the expense."
        },
        "message_needaction": {
            "string": "Action Needed",
            "type": "boolean",
            "help": "If checked, new messages require your attention."
        },
        "create_date": {
            "string": "Created on",
            "type": "datetime"
        },
        "account_id": {
            "string": "Account",
            "type": "many2one",
            "help": "An expense account is expected"
        },
        "message_partner_ids": {
            "string": "Followers (Partners)",
            "type": "many2many"
        },
        "__last_update": {
            "string": "Last Modified on",
            "type": "datetime"
        }
    }
}