{
    "id": 319,
    "name": "hr.holidays.remaining.leaves.user",
    "description": "Total holidays by type",
    "modelFields": {
        "user_id": {
            "string": "User",
            "type": "many2one"
        },
        "leave_type": {
            "string": "Leave Type",
            "type": "char"
        },
        "name": {
            "string": "Employee",
            "type": "char"
        },
        "id": {
            "string": "ID",
            "type": "integer"
        },
        "display_name": {
            "string": "Display Name",
            "type": "char"
        },
        "no_of_leaves": {
            "string": "Remaining leaves",
            "type": "integer"
        },
        "__last_update": {
            "string": "Last Modified on",
            "type": "datetime"
        }
    }
}