{
    "id": 321,
    "name": "hr.holidays.summary.employee",
    "description": "HR Leaves Summary Report By Employee",
    "modelFields": {
        "write_date": {
            "string": "Last Updated on",
            "type": "datetime"
        },
        "display_name": {
            "string": "Display Name",
            "type": "char"
        },
        "write_uid": {
            "string": "Last Updated by",
            "type": "many2one"
        },
        "create_date": {
            "string": "Created on",
            "type": "datetime"
        },
        "id": {
            "string": "ID",
            "type": "integer"
        },
        "create_uid": {
            "string": "Created by",
            "type": "many2one"
        },
        "emp": {
            "string": "Employee(s)",
            "type": "many2many"
        },
        "holiday_type": {
            "string": "Select Leave Type",
            "type": "selection"
        },
        "__last_update": {
            "string": "Last Modified on",
            "type": "datetime"
        },
        "date_from": {
            "string": "From",
            "type": "date"
        }
    }
}