{
    "id": 686,
    "name": "hr.payroll.structure",
    "description": "Salary Structure",
    "modelFields": {
        "display_name": {
            "string": "Display Name",
            "type": "char"
        },
        "company_id": {
            "string": "Company",
            "type": "many2one"
        },
        "name": {
            "string": "Name",
            "type": "char"
        },
        "create_uid": {
            "string": "Created by",
            "type": "many2one"
        },
        "children_ids": {
            "string": "Children",
            "type": "one2many"
        },
        "write_uid": {
            "string": "Last Updated by",
            "type": "many2one"
        },
        "rule_ids": {
            "string": "Salary Rules",
            "type": "many2many"
        },
        "id": {
            "string": "ID",
            "type": "integer"
        },
        "code": {
            "string": "Reference",
            "type": "char"
        },
        "write_date": {
            "string": "Last Updated on",
            "type": "datetime"
        },
        "__last_update": {
            "string": "Last Modified on",
            "type": "datetime"
        },
        "parent_id": {
            "string": "Parent",
            "type": "many2one"
        },
        "note": {
            "string": "Description",
            "type": "text"
        },
        "create_date": {
            "string": "Created on",
            "type": "datetime"
        }
    }
}