{
    "id": 327,
    "name": "im_livechat.channel",
    "description": "Livechat Channel",
    "modelFields": {
        "display_name": {
            "string": "Display Name",
            "type": "char"
        },
        "user_ids": {
            "string": "Operators",
            "type": "many2many"
        },
        "name": {
            "string": "Name",
            "type": "char",
            "help": "The name of the channel"
        },
        "website_description": {
            "string": "Website description",
            "type": "html",
            "help": "Description of the channel displayed on the website page"
        },
        "script_external": {
            "string": "Script (external)",
            "type": "text"
        },
        "image": {
            "string": "Image",
            "type": "binary",
            "help": "This field holds the image used as photo for the group, limited to 1024x1024px."
        },
        "__last_update": {
            "string": "Last Modified on",
            "type": "datetime"
        },
        "rule_ids": {
            "string": "Rules",
            "type": "one2many"
        },
        "nbr_channel": {
            "string": "Number of conversation",
            "type": "integer"
        },
        "create_uid": {
            "string": "Created by",
            "type": "many2one"
        },
        "id": {
            "string": "ID",
            "type": "integer"
        },
        "write_uid": {
            "string": "Last Updated by",
            "type": "many2one"
        },
        "button_text": {
            "string": "Text of the Button",
            "type": "char",
            "help": "Default text displayed on the Livechat Support Button"
        },
        "write_date": {
            "string": "Last Updated on",
            "type": "datetime"
        },
        "website_url": {
            "string": "Website URL",
            "type": "char",
            "help": "The full URL to access the document through the website."
        },
        "website_published": {
            "string": "Visible in Website",
            "type": "boolean"
        },
        "web_page": {
            "string": "Web Page",
            "type": "char",
            "help": "URL to a static page where you client can discuss with the operator of the channel."
        },
        "default_message": {
            "string": "Welcome Message",
            "type": "char",
            "help": "This is an automated 'welcome' message that your visitor will see when they initiate a new conversation."
        },
        "rating_percentage_satisfaction": {
            "string": "% Happy",
            "type": "integer",
            "help": "Percentage of happy ratings over the past 7 days"
        },
        "image_medium": {
            "string": "Medium",
            "type": "binary",
            "help": "Medium-sized photo of the group. It is automatically resized as a 128x128px image, with aspect ratio preserved. Use this field in form views or some kanban views."
        },
        "channel_ids": {
            "string": "Sessions",
            "type": "one2many"
        },
        "create_date": {
            "string": "Created on",
            "type": "datetime"
        },
        "are_you_inside": {
            "string": "Are you inside the matrix?",
            "type": "boolean"
        },
        "input_placeholder": {
            "string": "Chat Input Placeholder",
            "type": "char"
        },
        "image_small": {
            "string": "Thumbnail",
            "type": "binary",
            "help": "Small-sized photo of the group. It is automatically resized as a 64x64px image, with aspect ratio preserved. Use this field anywhere a small image is required."
        }
    }
}