{
    "id": 40,
    "name": "ir.qweb.field.date",
    "description": "ir.qweb.field.date",
    "modelFields": {
        "display_name": {
            "string": "Display Name",
            "type": "char"
        },
        "__last_update": {
            "string": "Last Modified on",
            "type": "datetime"
        },
        "id": {
            "string": "ID",
            "type": "integer"
        }
    }
}