{
    "id": 416,
    "name": "labor.quotation.line",
    "description": "labor.quotation.line",
    "modelFields": {
        "labor_uom": {
            "string": "Units",
            "type": "many2one"
        },
        "display_name": {
            "string": "Display Name",
            "type": "char"
        },
        "company_id": {
            "string": "Company",
            "type": "many2one"
        },
        "discount": {
            "string": "Discount (%)",
            "type": "float"
        },
        "name": {
            "string": "Description",
            "type": "text"
        },
        "currency_id": {
            "string": "Currency",
            "type": "many2one"
        },
        "__last_update": {
            "string": "Last Modified on",
            "type": "datetime"
        },
        "negotiated_rate": {
            "string": "Negotiated Rate",
            "type": "float"
        },
        "brand_id": {
            "string": "Brand",
            "type": "many2one"
        },
        "create_uid": {
            "string": "Created by",
            "type": "many2one"
        },
        "vat_per": {
            "string": "Vat(%)",
            "type": "float"
        },
        "credit_period": {
            "string": "Credit Period",
            "type": "integer"
        },
        "labor_id": {
            "string": "labor",
            "type": "many2one"
        },
        "price_subtotal": {
            "string": "Discounted Rate",
            "type": "monetary"
        },
        "basic_amount": {
            "string": "Basic Amount",
            "type": "monetary"
        },
        "st_on_per": {
            "string": "ST on (%)",
            "type": "float"
        },
        "date_order": {
            "string": "Order Date",
            "type": "datetime",
            "help": "Depicts the date where the Quotation should be validated and converted into a purchase order."
        },
        "price_total": {
            "string": "Total",
            "type": "monetary"
        },
        "taxed_amount": {
            "string": "Taxed Amount",
            "type": "monetary"
        },
        "work_class": {
            "string": "Work Class",
            "type": "many2one"
        },
        "state": {
            "string": "Status",
            "type": "selection"
        },
        "payment_schedule": {
            "string": "Payment Schedule",
            "type": "many2one"
        },
        "order_id": {
            "string": "Order Reference",
            "type": "many2one"
        },
        "partner_id": {
            "string": "Partner",
            "type": "many2one"
        },
        "retention": {
            "string": "Retention(%)",
            "type": "float"
        },
        "currency_rate": {
            "string": "Currency Rate",
            "type": "float"
        },
        "id": {
            "string": "ID",
            "type": "integer"
        },
        "write_uid": {
            "string": "Last Updated by",
            "type": "many2one"
        },
        "net_rate": {
            "string": "Net Rate",
            "type": "monetary"
        },
        "account_analytic_id": {
            "string": "Analytic Account",
            "type": "many2one"
        },
        "vat_on_per": {
            "string": "Vat on (%)",
            "type": "float"
        },
        "labor_category": {
            "string": "labor Category",
            "type": "many2one"
        },
        "date_planned": {
            "string": "Scheduled Date",
            "type": "datetime"
        },
        "write_date": {
            "string": "Last Updated on",
            "type": "datetime"
        },
        "labor_qty": {
            "string": "Quantity",
            "type": "float"
        },
        "price_tax": {
            "string": "Tax",
            "type": "monetary"
        },
        "st_per": {
            "string": "ST(%)",
            "type": "float"
        },
        "price_unit": {
            "string": "Rate",
            "type": "float"
        },
        "create_date": {
            "string": "Created on",
            "type": "datetime"
        },
        "taxes_id": {
            "string": "Taxes",
            "type": "many2many"
        }
    }
}