{
    "id": 471,
    "name": "labor.quotation.comparison",
    "description": "labor.quotation.comparison",
    "modelFields": {
        "display_name": {
            "string": "Display Name",
            "type": "char"
        },
        "contractor1": {
            "string": "Conractor1",
            "type": "many2one"
        },
        "total_contractor4": {
            "string": "Total",
            "type": "float"
        },
        "sub_project": {
            "string": "Sub Project",
            "type": "many2one"
        },
        "write_uid": {
            "string": "Last Updated by",
            "type": "many2one"
        },
        "description2": {
            "string": "Description2",
            "type": "char"
        },
        "quotation_comp_contractor3": {
            "string": "labor Quotation Details Vendor3",
            "type": "one2many"
        },
        "total_contractor5": {
            "string": "Total",
            "type": "float"
        },
        "total_amount": {
            "string": "Total Amount",
            "type": "float"
        },
        "contractor3": {
            "string": "Conractor3",
            "type": "many2one"
        },
        "description1": {
            "string": "Description1",
            "type": "char"
        },
        "state": {
            "string": "Status",
            "type": "selection"
        },
        "create_date": {
            "string": "Created on",
            "type": "datetime"
        },
        "quotation_comp_contractor6": {
            "string": "labor Quotation Details Vendor6",
            "type": "one2many"
        },
        "write_date": {
            "string": "Last Updated on",
            "type": "datetime"
        },
        "quotation_comp_contractor4": {
            "string": "labor Quotation Details Vendor4",
            "type": "one2many"
        },
        "id": {
            "string": "ID",
            "type": "integer"
        },
        "total_contractor6": {
            "string": "Total",
            "type": "float"
        },
        "description4": {
            "string": "Description4",
            "type": "char"
        },
        "labor_quotation_details": {
            "string": "labor Quotation Lines",
            "type": "one2many"
        },
        "quotation_comp_contractor1": {
            "string": "labor Quotation Details Vendor1",
            "type": "one2many"
        },
        "description3": {
            "string": "Description3",
            "type": "char"
        },
        "contractor4": {
            "string": "Conractor4",
            "type": "many2one"
        },
        "total_contractor3": {
            "string": "Total",
            "type": "float"
        },
        "total_contractor1": {
            "string": "Total",
            "type": "float"
        },
        "total_contractor2": {
            "string": "Total",
            "type": "float"
        },
        "from_date": {
            "string": "From Date",
            "type": "datetime"
        },
        "sequence_name": {
            "string": "Comparison Reference",
            "type": "char"
        },
        "labor_quotation_comp_tax_details2": {
            "string": "Quotation Tax1 Details",
            "type": "one2many"
        },
        "contractor_line": {
            "string": "Contractor Line",
            "type": "one2many"
        },
        "quotation_comp_contractor5": {
            "string": "labor Quotation Details Vendor5",
            "type": "one2many"
        },
        "description": {
            "string": "Description",
            "type": "char"
        },
        "create_uid": {
            "string": "Created by",
            "type": "many2one"
        },
        "quotation_comp_contractor2": {
            "string": "labor Quotation Details Vendor2",
            "type": "one2many"
        },
        "labor_quotation_comp_tax_details1": {
            "string": "Quotation Tax1 Details",
            "type": "one2many"
        },
        "contractor6": {
            "string": "Conractor6",
            "type": "many2one"
        },
        "labor_quotation_comp_tax_details5": {
            "string": "Quotation Tax1 Details",
            "type": "one2many"
        },
        "contractor5": {
            "string": "Conractor5",
            "type": "many2one"
        },
        "contractor2": {
            "string": "Conractor2",
            "type": "many2one"
        },
        "labor_quotation_comp_tax_details4": {
            "string": "Quotation Tax1 Details",
            "type": "one2many"
        },
        "labor_quotation_comp_tax_details3": {
            "string": "Quotation Tax1 Details",
            "type": "one2many"
        },
        "labor_quotation_comp_tax_details6": {
            "string": "Quotation Tax1 Details",
            "type": "one2many"
        },
        "project_wbs_id": {
            "string": "Project WBS Name",
            "type": "many2one"
        },
        "labor_quotation_comp_tax_particular": {
            "string": "Quotation Tax Particular Details",
            "type": "one2many"
        },
        "labor_line": {
            "string": "labor Lines",
            "type": "one2many"
        },
        "project_id": {
            "string": "Project",
            "type": "many2one"
        },
        "to_date": {
            "string": "To Date",
            "type": "datetime"
        },
        "__last_update": {
            "string": "Last Modified on",
            "type": "datetime"
        },
        "labor_quotation_comp_particular": {
            "string": "labor Quotation Details Line",
            "type": "one2many"
        }
    }
}