{
    "id": 448,
    "name": "labor.requisition",
    "description": "labor.requisition",
    "modelFields": {
        "display_name": {
            "string": "Display Name",
            "type": "char"
        },
        "create_date": {
            "string": "Created on",
            "type": "datetime"
        },
        "mesge_ids": {
            "string": "Massage",
            "type": "one2many"
        },
        "task_id": {
            "string": "Task",
            "type": "many2one"
        },
        "estimation_id": {
            "string": "Estimate No.",
            "type": "many2one"
        },
        "project_wbs": {
            "string": "Project WBS",
            "type": "many2one"
        },
        "priority": {
            "string": "Priority",
            "type": "selection"
        },
        "labor_id": {
            "string": "labor",
            "type": "many2one"
        },
        "total_ordered_qty": {
            "string": "Ordered Qty",
            "type": "float"
        },
        "remark": {
            "string": "Remark",
            "type": "char"
        },
        "rate": {
            "string": "Rate",
            "type": "float"
        },
        "unit": {
            "string": "UOM",
            "type": "many2one"
        },
        "specification": {
            "string": "Specification",
            "type": "char"
        },
        "id": {
            "string": "ID",
            "type": "integer"
        },
        "is_use": {
            "string": "Is Use",
            "type": "boolean"
        },
        "write_uid": {
            "string": "Last Updated by",
            "type": "many2one"
        },
        "project_id": {
            "string": "Project",
            "type": "many2one"
        },
        "labor_category": {
            "string": "labor Category",
            "type": "many2one"
        },
        "write_date": {
            "string": "Last Updated on",
            "type": "datetime"
        },
        "requisition_date": {
            "string": "Date",
            "type": "date"
        },
        "flag": {
            "string": "Flag",
            "type": "boolean"
        },
        "estimated_qty": {
            "string": "Estimated Qty",
            "type": "float"
        },
        "__last_update": {
            "string": "Last Modified on",
            "type": "datetime"
        },
        "name": {
            "string": "Name",
            "type": "char"
        },
        "requisition_as_on_date": {
            "string": "Requisition as on date",
            "type": "float"
        },
        "partner_id": {
            "string": "Contractor",
            "type": "many2one"
        },
        "warehouse_id": {
            "string": "Procurement Type",
            "type": "char"
        },
        "stage_id": {
            "string": "Stage",
            "type": "many2one"
        },
        "brand_id": {
            "string": "Brand",
            "type": "many2one"
        },
        "task_category": {
            "string": "Task Category",
            "type": "many2one"
        },
        "procurement_type": {
            "string": "Procurement Type",
            "type": "selection"
        },
        "current_req_qty": {
            "string": "Current Requisition Qty",
            "type": "float"
        },
        "requisition_fulfill": {
            "string": "Req fulfill",
            "type": "boolean"
        },
        "work_class": {
            "string": "Work Class",
            "type": "many2one"
        },
        "procurement_date": {
            "string": "Procurement Date",
            "type": "date"
        },
        "create_uid": {
            "string": "Created by",
            "type": "many2one"
        },
        "quantity": {
            "string": "Quantity",
            "type": "integer"
        },
        "group_id": {
            "string": "Group",
            "type": "many2one"
        },
        "balance_qty": {
            "string": "Balance  Qty",
            "type": "float",
            "help": "Current requisition qty-Total ordered qty"
        },
        "me_sequence": {
            "string": "Me sequence",
            "type": "char"
        },
        "total_approved_qty": {
            "string": "Approved Qty",
            "type": "float"
        },
        "sub_project": {
            "string": "Sub Project",
            "type": "many2one"
        },
        "requirement_date": {
            "string": "Requirement Date",
            "type": "date"
        },
        "status": {
            "string": "Status",
            "type": "selection"
        }
    }
}