{
    "id": 430,
    "name": "labor.library",
    "description": "labor.library",
    "modelFields": {
        "labor_uom": {
            "string": "Unit of Measure",
            "type": "many2one"
        },
        "display_name": {
            "string": "Display Name",
            "type": "char"
        },
        "create_date": {
            "string": "Created on",
            "type": "datetime"
        },
        "id": {
            "string": "ID",
            "type": "integer"
        },
        "write_uid": {
            "string": "Last Updated by",
            "type": "many2one"
        },
        "labor_rate": {
            "string": "Rate",
            "type": "float"
        },
        "create_uid": {
            "string": "Created by",
            "type": "many2one"
        },
        "write_date": {
            "string": "Last Updated on",
            "type": "datetime"
        },
        "labor_id": {
            "string": "labor",
            "type": "many2one"
        },
        "task_library_id": {
            "string": "Project Library Task",
            "type": "many2one"
        },
        "labor_uom_qty": {
            "string": "Quantity",
            "type": "float"
        },
        "__last_update": {
            "string": "Last Modified on",
            "type": "datetime"
        }
    }
}