{
    "id": 573,
    "name": "lunch.cashmove",
    "description": "lunch cashmove",
    "modelFields": {
        "order_id": {
            "string": "Order",
            "type": "many2one"
        },
        "user_id": {
            "string": "User",
            "type": "many2one"
        },
        "description": {
            "string": "Description",
            "type": "text",
            "help": "Can be an order or a payment"
        },
        "create_date": {
            "string": "Created on",
            "type": "datetime"
        },
        "amount": {
            "string": "Amount",
            "type": "float",
            "help": "Can be positive (payment) or negative (order or payment if user wants to get his money back)"
        },
        "display_name": {
            "string": "Display Name",
            "type": "char"
        },
        "write_uid": {
            "string": "Last Updated by",
            "type": "many2one"
        },
        "id": {
            "string": "ID",
            "type": "integer"
        },
        "write_date": {
            "string": "Last Updated on",
            "type": "datetime"
        },
        "create_uid": {
            "string": "Created by",
            "type": "many2one"
        },
        "__last_update": {
            "string": "Last Modified on",
            "type": "datetime"
        },
        "state": {
            "string": "Is an order or a payment",
            "type": "selection"
        },
        "date": {
            "string": "Date",
            "type": "date"
        }
    }
}