{
    "id": 124,
    "name": "mail.message.subtype",
    "description": "Message subtypes",
    "modelFields": {
        "display_name": {
            "string": "Display Name",
            "type": "char"
        },
        "description": {
            "string": "Description",
            "type": "text",
            "help": "Description that will be added in the message posted for this subtype. If void, the name will be added instead."
        },
        "write_uid": {
            "string": "Last Updated by",
            "type": "many2one"
        },
        "name": {
            "string": "Message Type",
            "type": "char",
            "help": "Message subtype gives a more precise type on the message, especially for system notifications. For example, it can be a notification related to a new record (New), or to a stage change in a process (Stage change). Message subtypes allow to precisely tune the notifications the user want to receive on its wall."
        },
        "id": {
            "string": "ID",
            "type": "integer"
        },
        "parent_id": {
            "string": "Parent",
            "type": "many2one",
            "help": "Parent subtype, used for automatic subscription. This field is not correctly named. For example on a project, the parent_id of project subtypes refers to task-related subtypes."
        },
        "sequence": {
            "string": "Sequence",
            "type": "integer",
            "help": "Used to order subtypes."
        },
        "create_uid": {
            "string": "Created by",
            "type": "many2one"
        },
        "relation_field": {
            "string": "Relation field",
            "type": "char",
            "help": "Field used to link the related model to the subtype model when using automatic subscription on a related document. The field is used to compute getattr(related_document.relation_field)."
        },
        "write_date": {
            "string": "Last Updated on",
            "type": "datetime"
        },
        "res_model": {
            "string": "Model",
            "type": "char",
            "help": "Model the subtype applies to. If False, this subtype applies to all models."
        },
        "internal": {
            "string": "Internal Only",
            "type": "boolean",
            "help": "Messages with internal subtypes will be visible only by employees, aka members of base_user group"
        },
        "hidden": {
            "string": "Hidden",
            "type": "boolean",
            "help": "Hide the subtype in the follower options"
        },
        "__last_update": {
            "string": "Last Modified on",
            "type": "datetime"
        },
        "default": {
            "string": "Default",
            "type": "boolean",
            "help": "Activated by default when subscribing."
        },
        "create_date": {
            "string": "Created on",
            "type": "datetime"
        }
    }
}