{
    "id": 125,
    "name": "mail.tracking.value",
    "description": "Mail Tracking Value",
    "modelFields": {
        "display_name": {
            "string": "Display Name",
            "type": "char"
        },
        "old_value_monetary": {
            "string": "Old Value Monetary",
            "type": "float"
        },
        "old_value_text": {
            "string": "Old Value Text",
            "type": "text"
        },
        "field_type": {
            "string": "Field Type",
            "type": "char"
        },
        "new_value_float": {
            "string": "New Value Float",
            "type": "float"
        },
        "field": {
            "string": "Changed Field",
            "type": "char"
        },
        "new_value_integer": {
            "string": "New Value Integer",
            "type": "integer"
        },
        "old_value_char": {
            "string": "Old Value Char",
            "type": "char"
        },
        "new_value_monetary": {
            "string": "New Value Monetary",
            "type": "float"
        },
        "new_value_text": {
            "string": "New Value Text",
            "type": "text"
        },
        "old_value_datetime": {
            "string": "Old Value DateTime",
            "type": "datetime"
        },
        "old_value_integer": {
            "string": "Old Value Integer",
            "type": "integer"
        },
        "create_uid": {
            "string": "Created by",
            "type": "many2one"
        },
        "new_value_char": {
            "string": "New Value Char",
            "type": "char"
        },
        "id": {
            "string": "ID",
            "type": "integer"
        },
        "write_uid": {
            "string": "Last Updated by",
            "type": "many2one"
        },
        "write_date": {
            "string": "Last Updated on",
            "type": "datetime"
        },
        "old_value_float": {
            "string": "Old Value Float",
            "type": "float"
        },
        "mail_message_id": {
            "string": "Message ID",
            "type": "many2one"
        },
        "field_desc": {
            "string": "Field Description",
            "type": "char"
        },
        "create_date": {
            "string": "Created on",
            "type": "datetime"
        },
        "new_value_datetime": {
            "string": "New Value Datetime",
            "type": "datetime"
        },
        "__last_update": {
            "string": "Last Modified on",
            "type": "datetime"
        }
    }
}