{
    "id": 138,
    "name": "mail.template",
    "description": "Email Templates",
    "modelFields": {
        "mail_server_id": {
            "string": "Outgoing Mail Server",
            "type": "many2one",
            "help": "Optional preferred server for outgoing mails. If not set, the highest priority one will be used."
        },
        "report_template": {
            "string": "Optional report to print and attach",
            "type": "many2one"
        },
        "name": {
            "string": "Name",
            "type": "char"
        },
        "copyvalue": {
            "string": "Placeholder Expression",
            "type": "char",
            "help": "Final placeholder expression, to be copy-pasted in the desired template field."
        },
        "display_name": {
            "string": "Display Name",
            "type": "char"
        },
        "model_object_field": {
            "string": "Field",
            "type": "many2one",
            "help": "Select target field from the related document model.\nIf it is a relationship field you will be able to select a target field at the destination of the relationship."
        },
        "partner_to": {
            "string": "To (Partners)",
            "type": "char",
            "help": "Comma-separated ids of recipient partners (placeholders may be used here)"
        },
        "model": {
            "string": "Related Document Model",
            "type": "char"
        },
        "ref_ir_act_window": {
            "string": "Sidebar action",
            "type": "many2one",
            "help": "Sidebar action to make this template available on records of the related document model"
        },
        "reply_to": {
            "string": "Reply-To",
            "type": "char",
            "help": "Preferred response address (placeholders may be used here)"
        },
        "null_value": {
            "string": "Default Value",
            "type": "char",
            "help": "Optional value to use if the target field is empty"
        },
        "user_signature": {
            "string": "Add Signature",
            "type": "boolean",
            "help": "If checked, the user's signature will be appended to the text version of the message"
        },
        "sub_model_object_field": {
            "string": "Sub-field",
            "type": "many2one",
            "help": "When a relationship field is selected as first field, this field lets you select the target field within the destination document model (sub-model)."
        },
        "sub_object": {
            "string": "Sub-model",
            "type": "many2one",
            "help": "When a relationship field is selected as first field, this field shows the document model the relationship goes to."
        },
        "lang": {
            "string": "Language",
            "type": "char",
            "help": "Optional translation language (ISO code) to select when sending out an email. If not set, the english version will be used. This should usually be a placeholder expression that provides the appropriate language, e.g. ${object.partner_id.lang}."
        },
        "report_name": {
            "string": "Report Filename",
            "type": "char",
            "help": "Name to use for the generated report file (may contain placeholders)\nThe extension can be omitted and will then come from the report type."
        },
        "auto_delete": {
            "string": "Auto Delete",
            "type": "boolean",
            "help": "Permanently delete this email after sending it, to save space"
        },
        "model_id": {
            "string": "Applies to",
            "type": "many2one",
            "help": "The type of document this template can be used with"
        },
        "id": {
            "string": "ID",
            "type": "integer"
        },
        "email_from": {
            "string": "From",
            "type": "char",
            "help": "Sender address (placeholders may be used here). If not set, the default value will be the author's email alias if configured, or email address."
        },
        "write_uid": {
            "string": "Last Updated by",
            "type": "many2one"
        },
        "scheduled_date": {
            "string": "Scheduled Date",
            "type": "char",
            "help": "If set, the queue manager will send the email after the date. If not set, the email will be send as soon as possible. Jinja2 placeholders may be used."
        },
        "create_uid": {
            "string": "Created by",
            "type": "many2one"
        },
        "use_default_to": {
            "string": "Default recipients",
            "type": "boolean",
            "help": "Default recipients of the record:\n- partner (using id on a partner or the partner_id field) OR\n- email (using email_from or email field)"
        },
        "keep_days": {
            "string": "Keep days",
            "type": "integer",
            "help": "This value defines the no. of days the emails should be recorded in the system: \n -1 = Email will be deleted immediately once it is send \n greater than 0 = Email will be deleted after the no. of days are met."
        },
        "attachment_ids": {
            "string": "Attachments",
            "type": "many2many",
            "help": "You may attach files to this template, to be added to all emails created from this template"
        },
        "email_to": {
            "string": "To (Emails)",
            "type": "char",
            "help": "Comma-separated recipient addresses (placeholders may be used here)"
        },
        "subject": {
            "string": "Subject",
            "type": "char",
            "help": "Subject (placeholders may be used here)"
        },
        "body_html": {
            "string": "Body",
            "type": "html"
        },
        "email_cc": {
            "string": "Cc",
            "type": "char",
            "help": "Carbon copy recipients (placeholders may be used here)"
        },
        "write_date": {
            "string": "Last Updated on",
            "type": "datetime"
        },
        "create_date": {
            "string": "Created on",
            "type": "datetime"
        },
        "__last_update": {
            "string": "Last Modified on",
            "type": "datetime"
        }
    }
}