{
    "id": 604,
    "name": "maintenance.request",
    "description": "Maintenance Requests",
    "modelFields": {
        "message_unread_counter": {
            "string": "Unread Messages Counter",
            "type": "integer",
            "help": "Number of unread messages"
        },
        "description": {
            "string": "Description",
            "type": "text"
        },
        "write_uid": {
            "string": "Last Updated by",
            "type": "many2one"
        },
        "equipment_id": {
            "string": "Equipment",
            "type": "many2one"
        },
        "name": {
            "string": "Subjects",
            "type": "char"
        },
        "activity_date_deadline": {
            "string": "Next Activity Deadline",
            "type": "date"
        },
        "maintenance_team_id": {
            "string": "Team",
            "type": "many2one"
        },
        "display_name": {
            "string": "Display Name",
            "type": "char"
        },
        "stage_id": {
            "string": "Stage",
            "type": "many2one"
        },
        "activity_user_id": {
            "string": "Responsible",
            "type": "many2one"
        },
        "message_ids": {
            "string": "Messages",
            "type": "one2many"
        },
        "activity_summary": {
            "string": "Next Activity Summary",
            "type": "char"
        },
        "priority": {
            "string": "Priority",
            "type": "selection"
        },
        "message_is_follower": {
            "string": "Is Follower",
            "type": "boolean"
        },
        "create_uid": {
            "string": "Created by",
            "type": "many2one"
        },
        "duration": {
            "string": "Duration",
            "type": "float",
            "help": "Duration in minutes and seconds."
        },
        "category_id": {
            "string": "Category",
            "type": "many2one"
        },
        "technician_user_id": {
            "string": "Owner",
            "type": "many2one"
        },
        "activity_state": {
            "string": "State",
            "type": "selection",
            "help": "Status based on activities\nOverdue: Due date is already passed\nToday: Activity date is today\nPlanned: Future activities."
        },
        "schedule_date": {
            "string": "Scheduled Date",
            "type": "datetime",
            "help": "Date the maintenance team plans the maintenance.  It should not differ much from the Request Date. "
        },
        "create_date": {
            "string": "Created on",
            "type": "datetime"
        },
        "message_channel_ids": {
            "string": "Followers (Channels)",
            "type": "many2many"
        },
        "activity_type_id": {
            "string": "Next Activity Type",
            "type": "many2one"
        },
        "maintenance_type": {
            "string": "Maintenance Type",
            "type": "selection"
        },
        "message_unread": {
            "string": "Unread Messages",
            "type": "boolean",
            "help": "If checked new messages require your attention."
        },
        "website_message_ids": {
            "string": "Website Messages",
            "type": "one2many",
            "help": "Website communication history"
        },
        "message_last_post": {
            "string": "Last Message Date",
            "type": "datetime",
            "help": "Date of the last message posted on the record."
        },
        "id": {
            "string": "ID",
            "type": "integer"
        },
        "message_needaction_counter": {
            "string": "Number of Actions",
            "type": "integer",
            "help": "Number of messages which requires an action"
        },
        "close_date": {
            "string": "Close Date",
            "type": "date",
            "help": "Date the maintenance was finished. "
        },
        "write_date": {
            "string": "Last Updated on",
            "type": "datetime"
        },
        "color": {
            "string": "Color Index",
            "type": "integer"
        },
        "activity_ids": {
            "string": "Activities",
            "type": "one2many"
        },
        "message_follower_ids": {
            "string": "Followers",
            "type": "one2many"
        },
        "owner_user_id": {
            "string": "Created by",
            "type": "many2one"
        },
        "message_partner_ids": {
            "string": "Followers (Partners)",
            "type": "many2many"
        },
        "message_needaction": {
            "string": "Action Needed",
            "type": "boolean",
            "help": "If checked, new messages require your attention."
        },
        "request_date": {
            "string": "Request Date",
            "type": "date",
            "help": "Date requested for the maintenance to happen"
        },
        "kanban_state": {
            "string": "Kanban State",
            "type": "selection"
        },
        "archive": {
            "string": "Archive",
            "type": "boolean",
            "help": "Set archive to true to hide the maintenance request without deleting it."
        },
        "__last_update": {
            "string": "Last Modified on",
            "type": "datetime"
        }
    }
}