{
    "id": 513,
    "name": "material.consume",
    "description": "material.consume",
    "modelFields": {
        "display_name": {
            "string": "Display Name",
            "type": "char"
        },
        "write_date": {
            "string": "Last Updated on",
            "type": "datetime"
        },
        "product_id": {
            "string": "Product",
            "type": "many2one"
        },
        "create_uid": {
            "string": "Created by",
            "type": "many2one"
        },
        "write_uid": {
            "string": "Last Updated by",
            "type": "many2one"
        },
        "task_id": {
            "string": "Task",
            "type": "many2one"
        },
        "id": {
            "string": "ID",
            "type": "integer"
        },
        "uom_id": {
            "string": "Unit of Measure",
            "type": "many2one"
        },
        "product_qty": {
            "string": "Quantity",
            "type": "float"
        },
        "__last_update": {
            "string": "Last Modified on",
            "type": "datetime"
        },
        "name": {
            "string": "Description",
            "type": "char"
        },
        "create_date": {
            "string": "Created on",
            "type": "datetime"
        }
    }
}