{
    "id": 429,
    "name": "material.estimate",
    "description": "material.estimate",
    "modelFields": {
        "display_name": {
            "string": "Display Name",
            "type": "char"
        },
        "unit_name": {
            "string": "Unit",
            "type": "many2one"
        },
        "write_uid": {
            "string": "Last Updated by",
            "type": "many2one"
        },
        "project_wbs_id": {
            "string": "Project wbs id",
            "type": "many2one"
        },
        "group_ids": {
            "string": "Group",
            "type": "many2one"
        },
        "id": {
            "string": "ID",
            "type": "integer"
        },
        "create_uid": {
            "string": "Created by",
            "type": "many2one"
        },
        "task_id": {
            "string": "Task",
            "type": "many2one"
        },
        "quantity": {
            "string": "Quantity",
            "type": "integer"
        },
        "task_category": {
            "string": "Category",
            "type": "many2one"
        },
        "write_date": {
            "string": "Last Updated on",
            "type": "datetime"
        },
        "group_name": {
            "string": "Group",
            "type": "char"
        },
        "date_start": {
            "string": "Starting Date",
            "type": "datetime"
        },
        "__last_update": {
            "string": "Last Modified on",
            "type": "datetime"
        },
        "create_date": {
            "string": "Created on",
            "type": "datetime"
        },
        "rate": {
            "string": "Rate",
            "type": "float"
        },
        "project_task_id": {
            "string": "Project task id",
            "type": "many2one"
        },
        "name": {
            "string": "Name",
            "type": "many2one"
        }
    }
}