{
    "id": 610,
    "name": "mrp.routing",
    "description": "Routings",
    "modelFields": {
        "display_name": {
            "string": "Display Name",
            "type": "char"
        },
        "active": {
            "string": "Active",
            "type": "boolean",
            "help": "If the active field is set to False, it will allow you to hide the routing without removing it."
        },
        "company_id": {
            "string": "Company",
            "type": "many2one"
        },
        "name": {
            "string": "Routing Name",
            "type": "char"
        },
        "id": {
            "string": "ID",
            "type": "integer"
        },
        "write_uid": {
            "string": "Last Updated by",
            "type": "many2one"
        },
        "create_uid": {
            "string": "Created by",
            "type": "many2one"
        },
        "code": {
            "string": "Reference",
            "type": "char"
        },
        "write_date": {
            "string": "Last Updated on",
            "type": "datetime"
        },
        "operation_ids": {
            "string": "Operations",
            "type": "one2many"
        },
        "__last_update": {
            "string": "Last Modified on",
            "type": "datetime"
        },
        "note": {
            "string": "Description",
            "type": "text"
        },
        "location_id": {
            "string": "Production Location",
            "type": "many2one",
            "help": "Keep empty if you produce at the location where you find the raw materials. Set a location if you produce at a fixed location. This can be a partner location if you subcontract the manufacturing operations."
        },
        "create_date": {
            "string": "Created on",
            "type": "datetime"
        }
    }
}