{
    "id": 607,
    "name": "mrp.bom",
    "description": "Bill of Material",
    "modelFields": {
        "product_tmpl_id": {
            "string": "Product",
            "type": "many2one"
        },
        "product_uom_id": {
            "string": "Product Unit of Measure",
            "type": "many2one",
            "help": "Unit of Measure (Unit of Measure) is the unit of measurement for the inventory control"
        },
        "company_id": {
            "string": "Company",
            "type": "many2one"
        },
        "message_channel_ids": {
            "string": "Followers (Channels)",
            "type": "many2many"
        },
        "create_date": {
            "string": "Created on",
            "type": "datetime"
        },
        "message_unread_counter": {
            "string": "Unread Messages Counter",
            "type": "integer",
            "help": "Number of unread messages"
        },
        "display_name": {
            "string": "Display Name",
            "type": "char"
        },
        "sequence": {
            "string": "Sequence",
            "type": "integer",
            "help": "Gives the sequence order when displaying a list of bills of material."
        },
        "message_ids": {
            "string": "Messages",
            "type": "one2many"
        },
        "message_needaction_counter": {
            "string": "Number of Actions",
            "type": "integer",
            "help": "Number of messages which requires an action"
        },
        "bom_line_ids": {
            "string": "BoM Lines",
            "type": "one2many"
        },
        "ready_to_produce": {
            "string": "Manufacturing Readiness",
            "type": "selection"
        },
        "message_is_follower": {
            "string": "Is Follower",
            "type": "boolean"
        },
        "product_qty": {
            "string": "Quantity",
            "type": "float"
        },
        "code": {
            "string": "Reference",
            "type": "char"
        },
        "create_uid": {
            "string": "Created by",
            "type": "many2one"
        },
        "active": {
            "string": "Active",
            "type": "boolean",
            "help": "If the active field is set to False, it will allow you to hide the bills of material without removing it."
        },
        "product_id": {
            "string": "Product Variant",
            "type": "many2one",
            "help": "If a product variant is defined the BOM is available only for this product."
        },
        "id": {
            "string": "ID",
            "type": "integer"
        },
        "website_message_ids": {
            "string": "Website Messages",
            "type": "one2many",
            "help": "Website communication history"
        },
        "message_last_post": {
            "string": "Last Message Date",
            "type": "datetime",
            "help": "Date of the last message posted on the record."
        },
        "write_uid": {
            "string": "Last Updated by",
            "type": "many2one"
        },
        "type": {
            "string": "BoM Type",
            "type": "selection"
        },
        "routing_id": {
            "string": "Routing",
            "type": "many2one",
            "help": "The operations for producing this BoM.  When a routing is specified, the production orders will  be executed through work orders, otherwise everything is processed in the production order itself. "
        },
        "write_date": {
            "string": "Last Updated on",
            "type": "datetime"
        },
        "message_unread": {
            "string": "Unread Messages",
            "type": "boolean",
            "help": "If checked new messages require your attention."
        },
        "message_follower_ids": {
            "string": "Followers",
            "type": "one2many"
        },
        "picking_type_id": {
            "string": "Operation Type",
            "type": "many2one",
            "help": "When a procurement has a ‘produce’ route with a operation type set, it will try to create a Manufacturing Order for that product using a BoM of the same operation type. That allows to define procurement rules which trigger different manufacturing orders with different BoMs."
        },
        "message_needaction": {
            "string": "Action Needed",
            "type": "boolean",
            "help": "If checked, new messages require your attention."
        },
        "message_partner_ids": {
            "string": "Followers (Partners)",
            "type": "many2many"
        },
        "__last_update": {
            "string": "Last Modified on",
            "type": "datetime"
        }
    }
}