{
    "id": 627,
    "name": "pos.order.line",
    "description": "Lines of Point of Sale Orders",
    "modelFields": {
        "order_id": {
            "string": "Order Ref",
            "type": "many2one"
        },
        "display_name": {
            "string": "Display Name",
            "type": "char"
        },
        "company_id": {
            "string": "Company",
            "type": "many2one"
        },
        "discount": {
            "string": "Discount (%)",
            "type": "float"
        },
        "product_id": {
            "string": "Product",
            "type": "many2one"
        },
        "qty": {
            "string": "Quantity",
            "type": "float"
        },
        "write_uid": {
            "string": "Last Updated by",
            "type": "many2one"
        },
        "pack_lot_ids": {
            "string": "Lot/serial Number",
            "type": "one2many"
        },
        "id": {
            "string": "ID",
            "type": "integer"
        },
        "tax_ids": {
            "string": "Taxes",
            "type": "many2many"
        },
        "__last_update": {
            "string": "Last Modified on",
            "type": "datetime"
        },
        "write_date": {
            "string": "Last Updated on",
            "type": "datetime"
        },
        "price_subtotal_incl": {
            "string": "Subtotal",
            "type": "float"
        },
        "tax_ids_after_fiscal_position": {
            "string": "Taxes",
            "type": "many2many"
        },
        "price_subtotal": {
            "string": "Subtotal w/o Tax",
            "type": "float"
        },
        "create_uid": {
            "string": "Created by",
            "type": "many2one"
        },
        "price_unit": {
            "string": "Unit Price",
            "type": "float"
        },
        "notice": {
            "string": "Discount Notice",
            "type": "char"
        },
        "name": {
            "string": "Line No",
            "type": "char"
        },
        "create_date": {
            "string": "Creation Date",
            "type": "datetime"
        }
    }
}