{
    "id": 538,
    "name": "procurement.types",
    "description": "procurement.types",
    "modelFields": {
        "write_date": {
            "string": "Last Updated on",
            "type": "datetime"
        },
        "display_name": {
            "string": "Display Name",
            "type": "char"
        },
        "write_uid": {
            "string": "Last Updated by",
            "type": "many2one"
        },
        "name": {
            "string": "Procurement Types",
            "type": "char"
        },
        "create_uid": {
            "string": "Created by",
            "type": "many2one"
        },
        "id": {
            "string": "ID",
            "type": "integer"
        },
        "status": {
            "string": "Status",
            "type": "selection"
        },
        "__last_update": {
            "string": "Last Modified on",
            "type": "datetime"
        },
        "create_date": {
            "string": "Created on",
            "type": "datetime"
        }
    }
}