{
    "id": 338,
    "name": "procurement.group",
    "description": "Procurement Requisition",
    "modelFields": {
        "move_type": {
            "string": "Delivery Type",
            "type": "selection"
        },
        "partner_id": {
            "string": "Partner",
            "type": "many2one"
        },
        "write_uid": {
            "string": "Last Updated by",
            "type": "many2one"
        },
        "sale_id": {
            "string": "Sale Order",
            "type": "many2one"
        },
        "name": {
            "string": "Reference",
            "type": "char"
        },
        "display_name": {
            "string": "Display Name",
            "type": "char"
        },
        "create_uid": {
            "string": "Created by",
            "type": "many2one"
        },
        "write_date": {
            "string": "Last Updated on",
            "type": "datetime"
        },
        "id": {
            "string": "ID",
            "type": "integer"
        },
        "__last_update": {
            "string": "Last Modified on",
            "type": "datetime"
        },
        "create_date": {
            "string": "Created on",
            "type": "datetime"
        }
    }
}