{
    "id": 163,
    "name": "product.category",
    "description": "Product Category",
    "modelFields": {
        "display_name": {
            "string": "Display Name",
            "type": "char"
        },
        "name": {
            "string": "Name",
            "type": "char"
        },
        "property_cost_method": {
            "string": "Costing Method",
            "type": "selection",
            "help": "Standard Price: The products are valued at their standard cost defined on the product.\n        Average Cost (AVCO): The products are valued at weighted average cost.\n        First In First Out (FIFO): The products are valued supposing those that enter the company first will also leave it first.\n        "
        },
        "total_route_ids": {
            "string": "Total routes",
            "type": "many2many"
        },
        "parent_id": {
            "string": "Parent Category",
            "type": "many2one"
        },
        "property_stock_valuation_account_id": {
            "string": "Stock Valuation Account",
            "type": "many2one",
            "help": "When real-time inventory valuation is enabled on a product, this account will hold the current value of the products."
        },
        "part_id": {
            "string": "Partner Id",
            "type": "many2one"
        },
        "child_id": {
            "string": "Child Categories",
            "type": "one2many"
        },
        "parent_right": {
            "string": "Right Parent",
            "type": "integer"
        },
        "property_valuation": {
            "string": "Inventory Valuation",
            "type": "selection",
            "help": "Manual: The accounting entries to value the inventory are not posted automatically.\n        Automated: An accounting entry is automatically created to value the inventory when a product enters or leaves the company.\n        "
        },
        "property_account_income_categ_id": {
            "string": "Income Account",
            "type": "many2one",
            "help": "This account will be used when validating a customer invoice."
        },
        "property_stock_account_output_categ_id": {
            "string": "Stock Output Account",
            "type": "many2one",
            "help": "When doing real-time inventory valuation, counterpart journal items for all outgoing stock moves will be posted in this account, unless there is a specific valuation account set on the destination location. This is the default value for all products in this category. It can also directly be set on each product"
        },
        "parent_left": {
            "string": "Left Parent",
            "type": "integer"
        },
        "property_account_expense_categ_id": {
            "string": "Expense Account",
            "type": "many2one",
            "help": "The expense is accounted for when a vendor bill is validated, except in anglo-saxon accounting with perpetual inventory valuation in which case the expense (Cost of Goods Sold account) is recognized at the customer invoice validation."
        },
        "create_uid": {
            "string": "Created by",
            "type": "many2one"
        },
        "write_date": {
            "string": "Last Updated on",
            "type": "datetime"
        },
        "id": {
            "string": "ID",
            "type": "integer"
        },
        "write_uid": {
            "string": "Last Updated by",
            "type": "many2one"
        },
        "product_count": {
            "string": "# Products",
            "type": "integer",
            "help": "The number of products under this category (Does not consider the children categories)"
        },
        "property_account_creditor_price_difference_categ": {
            "string": "Price Difference Account",
            "type": "many2one",
            "help": "This account will be used to value price difference between purchase price and accounting cost."
        },
        "property_stock_account_input_categ_id": {
            "string": "Stock Input Account",
            "type": "many2one",
            "help": "When doing real-time inventory valuation, counterpart journal items for all incoming stock moves will be posted in this account, unless there is a specific valuation account set on the source location. This is the default value for all products in this category. It can also directly be set on each product"
        },
        "removal_strategy_id": {
            "string": "Force Removal Strategy",
            "type": "many2one",
            "help": "Set a specific removal strategy that will be used regardless of the source location for this product category"
        },
        "complete_name": {
            "string": "Complete Name",
            "type": "char"
        },
        "property_stock_journal": {
            "string": "Stock Journal",
            "type": "many2one",
            "help": "When doing real-time inventory valuation, this is the Accounting Journal in which entries will be automatically posted when stock moves are processed."
        },
        "__last_update": {
            "string": "Last Modified on",
            "type": "datetime"
        },
        "create_date": {
            "string": "Created on",
            "type": "datetime"
        },
        "route_ids": {
            "string": "Routes",
            "type": "many2many"
        }
    }
}