{
    "id": 332,
    "name": "project.project",
    "description": "Project",
    "modelFields": {
        "active_duplicate": {
            "string": "Active duplicate",
            "type": "boolean"
        },
        "real_revenue_margin": {
            "string": "Real Margin ",
            "type": "float"
        },
        "plot_area": {
            "string": "Plot Area",
            "type": "float"
        },
        "sale_order_ids": {
            "string": "Sale Order Reference",
            "type": "many2many"
        },
        "alias_parent_thread_id": {
            "string": "Parent Record Thread ID",
            "type": "integer",
            "help": "ID of the parent record holding the alias (example: project holding the task creation alias)"
        },
        "create_date": {
            "string": "Created on",
            "type": "datetime"
        },
        "favorite_user_ids": {
            "string": "Members",
            "type": "many2many"
        },
        "display_name": {
            "string": "Display Name",
            "type": "char"
        },
        "alias_id": {
            "string": "Alias",
            "type": "many2one",
            "help": "Internal email associated with this project. Incoming emails are automatically synchronized with Tasks (or optionally Issues if the Issue Tracker module is installed)."
        },
        "street2": {
            "string": "Street2",
            "type": "char"
        },
        "task_type_ids": {
            "string": "Project(s)",
            "type": "many2many"
        },
        "tasks": {
            "string": "Task Activities",
            "type": "one2many"
        },
        "estimation_total": {
            "string": "Total Estimation",
            "type": "float"
        },
        "message_needaction_counter": {
            "string": "Number of Actions",
            "type": "integer",
            "help": "Number of messages which requires an action"
        },
        "left_hours_to_invoice": {
            "string": "Remaining Time",
            "type": "float"
        },
        "parent_id": {
            "string": "Parent Analytic Account",
            "type": "many2one"
        },
        "task_needaction_count": {
            "string": "Tasks",
            "type": "integer"
        },
        "analytic_account_id": {
            "string": "Contract/Analytic",
            "type": "many2one",
            "help": "Link this project to an analytic account if you need financial management on projects. It enables you to connect projects with budgets, planning, cost and revenue analysis, timesheets on projects, etc."
        },
        "project_deliverables_ids": {
            "string": "Deliverable",
            "type": "one2many"
        },
        "subtask_project_id": {
            "string": "Sub_task Project",
            "type": "many2one",
            "help": "Choosing a sub-tasks project will both enable sub-tasks and set their default project (possibly the project itself)"
        },
        "markup_cost": {
            "string": "Markup Cost",
            "type": "float"
        },
        "state": {
            "string": "Status",
            "type": "selection"
        },
        "doc_count": {
            "string": "Number of documents attached",
            "type": "integer"
        },
        "alias_parent_model_id": {
            "string": "Parent Model",
            "type": "many2one",
            "help": "Parent model holding the alias. The model holding the alias reference is not necessarily the model given by alias_model_id (example: project (parent_model) and task (model))"
        },
        "estimated_cost": {
            "string": "Estimated Cost",
            "type": "float"
        },
        "quantity_max": {
            "string": "Prepaid Service Units",
            "type": "float"
        },
        "sprint_count": {
            "string": "No. of sprints related to",
            "type": "integer"
        },
        "project_cost": {
            "string": "Project Cost",
            "type": "float"
        },
        "alias_contact": {
            "string": "Alias Contact Security",
            "type": "selection",
            "help": "Policy to post a message on the document using the mailgateway.\n- everyone: everyone can post\n- partners: only authenticated partners\n- followers: only followers of the related document or members of following channels\n"
        },
        "inventory_usages_ids": {
            "string": "Inventory Usage Reference",
            "type": "one2many"
        },
        "location_id": {
            "string": "Location",
            "type": "many2one"
        },
        "write_uid": {
            "string": "Last Updated by",
            "type": "many2one"
        },
        "real_margin_per": {
            "string": "Real Margin Rate (%)",
            "type": "float"
        },
        "alias_user_id": {
            "string": "Owner",
            "type": "many2one",
            "help": "The owner of records created upon receiving emails on this alias. If this field is not set the system will attempt to find the right owner based on the sender (From) address, or will use the Administrator account if no system user is found for that address."
        },
        "tdr": {
            "string": "TDR",
            "type": "char"
        },
        "cust_inv_amt": {
            "string": "Invoiced Amount",
            "type": "float"
        },
        "message_follower_ids": {
            "string": "Followers",
            "type": "one2many"
        },
        "flag": {
            "string": "Flag",
            "type": "boolean"
        },
        "builtup_area": {
            "string": "Builtup Area",
            "type": "float"
        },
        "sanction_no": {
            "string": "Sanction No",
            "type": "char"
        },
        "task_count": {
            "string": "Tasks",
            "type": "integer"
        },
        "architect": {
            "string": "Architect",
            "type": "many2one"
        },
        "is_favorite": {
            "string": "Show Project on dashboard",
            "type": "boolean",
            "help": "Whether this project should be displayed on the dashboard or not"
        },
        "country_id": {
            "string": "Country",
            "type": "many2one"
        },
        "amt_max": {
            "string": "Max. Invoice Price",
            "type": "float"
        },
        "previous_bill_date": {
            "string": "Last Invoice Date ",
            "type": "date"
        },
        "description": {
            "string": "Remark/Description",
            "type": "text"
        },
        "company_id": {
            "string": "Company",
            "type": "many2one"
        },
        "message_channel_ids": {
            "string": "Followers (Channels)",
            "type": "many2many"
        },
        "site_contact_no": {
            "string": "Site Contact No",
            "type": "char"
        },
        "template_id": {
            "string": "Template of Contract",
            "type": "many2one"
        },
        "partner_id": {
            "string": "Customer",
            "type": "many2one"
        },
        "street": {
            "string": "Street",
            "type": "char"
        },
        "zip": {
            "string": "Zip",
            "type": "char"
        },
        "purchase_order_ids": {
            "string": "Purchase Order Reference",
            "type": "many2many"
        },
        "message_ids": {
            "string": "Message",
            "type": "one2many"
        },
        "project_ids": {
            "string": "Projects",
            "type": "one2many"
        },
        "fsi": {
            "string": "FSI",
            "type": "char"
        },
        "is_overdue_qty": {
            "string": "Overdue Quantity",
            "type": "boolean"
        },
        "no_of_hours": {
            "string": "Working Hour(s) per Day",
            "type": "integer"
        },
        "subproject_ids": {
            "string": "Subproject ids",
            "type": "one2many"
        },
        "message_is_follower": {
            "string": "Is Follower",
            "type": "boolean"
        },
        "total_worked_time": {
            "string": "Total Worked Time",
            "type": "float"
        },
        "rec_interval": {
            "string": "Repeat Every",
            "type": "integer"
        },
        "total_invoiced": {
            "string": "Total Invoiced",
            "type": "float"
        },
        "to_invoice": {
            "string": "Activity Invoicing Ratio",
            "type": "many2one"
        },
        "construction_cost_per_SFT": {
            "string": "Construction Cost per SFT",
            "type": "char"
        },
        "start_date": {
            "string": "Start Date",
            "type": "date"
        },
        "type_ids": {
            "string": "Tasks Stages",
            "type": "many2many"
        },
        "label_tasks": {
            "string": "Use Tasks as",
            "type": "char",
            "help": "Gives label to tasks on project's kanban view."
        },
        "date": {
            "string": "Expiration Date",
            "type": "date"
        },
        "user_id": {
            "string": "Project Manager",
            "type": "many2one"
        },
        "active": {
            "string": "Active",
            "type": "boolean",
            "help": "If the active field is set to False, it will allow you to hide the project without removing it."
        },
        "company_uom_id": {
            "string": "Company UOM",
            "type": "many2one",
            "help": "This will set the unit of measure used in projects and tasks.\nIf you use the timesheet linked to projects, don't forget to setup the right unit of measure in your employees."
        },
        "website_message_ids": {
            "string": "Website Messages",
            "type": "one2many",
            "help": "Website communication history"
        },
        "medium": {
            "string": "No of Days for Medium priority",
            "type": "integer"
        },
        "manager_id": {
            "string": "Account Manager",
            "type": "many2one"
        },
        "task_ids": {
            "string": "Tasks",
            "type": "one2many"
        },
        "no_of_days": {
            "string": "Working Day(s) per Week",
            "type": "integer"
        },
        "code": {
            "string": "Reference",
            "type": "char"
        },
        "color": {
            "string": "Color Index",
            "type": "integer"
        },
        "resource_calendar_id": {
            "string": "Working Time",
            "type": "many2one",
            "help": "Timetable working hours to adjust the gantt diagram report"
        },
        "site_specifications": {
            "string": "Site Specifications",
            "type": "many2one"
        },
        "message_partner_ids": {
            "string": "Followers (Partners)",
            "type": "many2many"
        },
        "file_name": {
            "string": "File Name",
            "type": "char"
        },
        "date_end": {
            "string": "End Date",
            "type": "date"
        },
        "message_last_post": {
            "string": "Last Message Date",
            "type": "datetime",
            "help": "Date of the last message posted on the record."
        },
        "alias_model": {
            "string": "Alias Model",
            "type": "selection"
        },
        "legal_adviser": {
            "string": "Legal Adviser",
            "type": "many2one"
        },
        "user_ids": {
            "string": "Users",
            "type": "many2many"
        },
        "crossovered_budget_line": {
            "string": "Budget Lines",
            "type": "one2many"
        },
        "estimation_hours_invoice": {
            "string": "Estimation of Hours to Invoice",
            "type": "float"
        },
        "currency_id": {
            "string": "Currency",
            "type": "many2one"
        },
        "total_remaining": {
            "string": "Total Remaining",
            "type": "float"
        },
        "month_ids": {
            "string": "Months",
            "type": "many2many"
        },
        "low": {
            "string": "No of Days for Low priority",
            "type": "integer"
        },
        "high": {
            "string": "No of Days for High priority",
            "type": "integer"
        },
        "alias_name": {
            "string": "Alias Name",
            "type": "char",
            "help": "The name of the email alias, e.g. 'jobs' if you want to catch emails for <jobs@example.perpul.com>"
        },
        "pricelist_id": {
            "string": "Pricelist",
            "type": "many2one"
        },
        "uninvoiced_time": {
            "string": "Uninvoiced Time",
            "type": "float"
        },
        "use_timesheets": {
            "string": "Use Timesheets ",
            "type": "boolean"
        },
        "previous_worked_date": {
            "string": "Date of Last Cost/Work",
            "type": "date"
        },
        "state_id": {
            "string": "State",
            "type": "many2one"
        },
        "name": {
            "string": "Analytic Account",
            "type": "char"
        },
        "lbt_location_id": {
            "string": "LBT Location ID",
            "type": "char"
        },
        "debit": {
            "string": "Debit",
            "type": "monetary"
        },
        "use_tasks": {
            "string": "Use Tasks",
            "type": "boolean"
        },
        "displayed_image_id": {
            "string": "Cover Image",
            "type": "many2one"
        },
        "nex_rec_date": {
            "string": "Date of Next Invoice",
            "type": "date"
        },
        "previous_worked_bill_date": {
            "string": "Date of Last Invoiced Cost",
            "type": "date"
        },
        "alias_domain": {
            "string": "Alias domain",
            "type": "char"
        },
        "account_cost": {
            "string": "Total Costs",
            "type": "float"
        },
        "attachment_line_ids": {
            "string": "Attachment",
            "type": "one2many"
        },
        "rec_invoice_line_ids": {
            "string": "Invoice Lines",
            "type": "one2many"
        },
        "site_contact_person": {
            "string": "Site Contact Person",
            "type": "many2one"
        },
        "write_date": {
            "string": "Last Updated on",
            "type": "datetime"
        },
        "message_unread": {
            "string": "Unread Messages",
            "type": "boolean",
            "help": "If checked new messages require your attention."
        },
        "consultant": {
            "string": "Consultant",
            "type": "many2one"
        },
        "city": {
            "string": "City",
            "type": "char"
        },
        "line_ids": {
            "string": "Analytic Lines",
            "type": "one2many"
        },
        "alias_force_thread_id": {
            "string": "Record Thread ID",
            "type": "integer",
            "help": "Optional ID of a thread (record) to which all incoming messages will be attached, even if they did not reply to it. If set, this will disable the creation of new records completely."
        },
        "privacy_visibility": {
            "string": "Privacy",
            "type": "selection",
            "help": "Holds visibility of the tasks or issues that belong to the current project:\n- On invitation only: Employees may only see the followed project, tasks or issues\n- Visible by all employees: Employees may see all project, tasks or issues\n- Visible by following customers: employees see everything;\n   if website is activated, portal users may see project, tasks or issues followed by\n   them or by someone of their company\n"
        },
        "date_start": {
            "string": "Start Date",
            "type": "date"
        },
        "timesheet_cust_inv_amt": {
            "string": "Remaining Time",
            "type": "float"
        },
        "left_hours": {
            "string": "Remaining Time",
            "type": "float"
        },
        "amt_invoiced": {
            "string": "Invoiced Amount",
            "type": "float",
            "help": "Total invoiced"
        },
        "stage_id": {
            "string": "Stage",
            "type": "many2one"
        },
        "saleable_area": {
            "string": "Saleable Area",
            "type": "float"
        },
        "__last_update": {
            "string": "Last Modified on",
            "type": "datetime"
        },
        "message_unread_counter": {
            "string": "Unread Messages Counter",
            "type": "integer",
            "help": "Number of unread messages"
        },
        "timesheet_invoice": {
            "string": "On Timesheets",
            "type": "boolean"
        },
        "group_ids": {
            "string": "Groups",
            "type": "many2many"
        },
        "total_to_invoice": {
            "string": "Total to Invoice",
            "type": "float"
        },
        "alias_defaults": {
            "string": "Default Values",
            "type": "text",
            "help": "A Python dictionary that will be evaluated to provide default values when creating new records for this alias."
        },
        "sequence": {
            "string": "Sequence",
            "type": "integer",
            "help": "Gives the sequence order when displaying a list of Projects."
        },
        "invoiced_time": {
            "string": "Invoiced Time",
            "type": "float"
        },
        "sale_line_id": {
            "string": "Sales Order Line",
            "type": "many2one",
            "help": "Sale order line from which the project has been created. Used for tracability."
        },
        "date_ids": {
            "string": "Sanction Dates",
            "type": "one2many"
        },
        "theorical_revenue_margin": {
            "string": "Theoretical Margin",
            "type": "float"
        },
        "work_package_ids": {
            "string": "Work Package Reference",
            "type": "one2many"
        },
        "allow_timesheets": {
            "string": "Allow timesheets",
            "type": "boolean"
        },
        "finish_date": {
            "string": "Finish Date",
            "type": "date"
        },
        "revenue_by_hour": {
            "string": "Revenue per Time (real)",
            "type": "float"
        },
        "project_count": {
            "string": "Project Count",
            "type": "integer"
        },
        "invoice_fix_price": {
            "string": "Remaining Time",
            "type": "float"
        },
        "alias_model_id": {
            "string": "Aliased Model",
            "type": "many2one",
            "help": "The model (Perpul Document Kind) to which this alias corresponds. Any incoming email that does not reply to an existing record will cause the creation of a new record of this model (e.g. a Project Task)"
        },
        "engineer_incharge": {
            "string": "Engineer Incharge",
            "type": "many2one"
        },
        "carpet_area": {
            "string": "Carpet Area",
            "type": "float"
        },
        "create_uid": {
            "string": "Created by",
            "type": "many2one"
        },
        "rec_invoices": {
            "string": "Generate recurring invoices automatically",
            "type": "boolean"
        },
        "uninvoiced_amount": {
            "string": "Uninvoiced Amount",
            "type": "float"
        },
        "remaining_revenue": {
            "string": "Remaining Revenue",
            "type": "float"
        },
        "portal_url": {
            "string": "Portal Access URL",
            "type": "char",
            "help": "Customer Portal URL"
        },
        "id": {
            "string": "ID",
            "type": "integer"
        },
        "child_ids": {
            "string": "Child Accounts",
            "type": "one2many"
        },
        "type": {
            "string": "Type of Account",
            "type": "selection"
        },
        "rec_rule_type": {
            "string": "Recurrency",
            "type": "selection"
        },
        "balance": {
            "string": "Balance",
            "type": "monetary"
        },
        "branch_id": {
            "string": "Branch",
            "type": "many2one"
        },
        "project_category": {
            "string": "Category",
            "type": "many2one"
        },
        "vat": {
            "string": "VAT No",
            "type": "char"
        },
        "fixed_price": {
            "string": "Fixed Price",
            "type": "boolean"
        },
        "message_needaction": {
            "string": "Action Needed",
            "type": "boolean",
            "help": "If checked, new messages require your attention."
        },
        "total_construction_cost": {
            "string": "Total Construction Cost",
            "type": "float"
        },
        "credit": {
            "string": "Credit",
            "type": "monetary"
        },
        "tag_ids": {
            "string": "Tags",
            "type": "many2many"
        },
        "theoretical_revenue": {
            "string": "Theoretical Revenue",
            "type": "float"
        },
        "cst": {
            "string": "CST No",
            "type": "char"
        }
    }
}