{
    "id": 331,
    "name": "project.task.type",
    "description": "Task Stage",
    "modelFields": {
        "display_name": {
            "string": "Display Name",
            "type": "char"
        },
        "description": {
            "string": "Description",
            "type": "text"
        },
        "write_uid": {
            "string": "Last Updated by",
            "type": "many2one"
        },
        "name": {
            "string": "Stage Name",
            "type": "char"
        },
        "id": {
            "string": "ID",
            "type": "integer"
        },
        "legend_done": {
            "string": "Green Kanban Label",
            "type": "char",
            "help": "Override the default value displayed for the done state for kanban selection, when the task or issue is in that stage."
        },
        "create_uid": {
            "string": "Created by",
            "type": "many2one"
        },
        "mail_template_id": {
            "string": "Email Template",
            "type": "many2one",
            "help": "If set an email will be sent to the customer when the task or issue reaches this step."
        },
        "project_ids": {
            "string": "Projects",
            "type": "many2many"
        },
        "legend_blocked": {
            "string": "Red Kanban Label",
            "type": "char",
            "help": "Override the default value displayed for the blocked state for kanban selection, when the task or issue is in that stage."
        },
        "write_date": {
            "string": "Last Updated on",
            "type": "datetime"
        },
        "legend_normal": {
            "string": "Grey Kanban Label",
            "type": "char",
            "help": "Override the default value displayed for the normal state for kanban selection, when the task or issue is in that stage."
        },
        "__last_update": {
            "string": "Last Modified on",
            "type": "datetime"
        },
        "fold": {
            "string": "Folded in Kanban",
            "type": "boolean",
            "help": "This stage is folded in the kanban view when there are no records in that stage to display."
        },
        "legend_priority": {
            "string": "Starred Explanation",
            "type": "char",
            "help": "Explanation text to help users using the star on tasks or issues in this stage."
        },
        "sequence": {
            "string": "Sequence",
            "type": "integer"
        },
        "create_date": {
            "string": "Created on",
            "type": "datetime"
        }
    }
}