{
    "id": 738,
    "name": "purchase.indent.line",
    "description": "Purchase Indent Line",
    "modelFields": {
        "partner_id": {
            "string": "Partner",
            "type": "many2one",
            "help": "Partner-related data of the user"
        },
        "expected_date": {
            "string": "Expected Date",
            "type": "date"
        },
        "company_id": {
            "string": "Company",
            "type": "many2one"
        },
        "name": {
            "string": "Description",
            "type": "text"
        },
        "id": {
            "string": "ID",
            "type": "integer"
        },
        "display_name": {
            "string": "Display Name",
            "type": "char"
        },
        "write_uid": {
            "string": "Last Updated by",
            "type": "many2one"
        },
        "sequence": {
            "string": "Sequence",
            "type": "integer"
        },
        "purchase_indent_id": {
            "string": "Purchase Indent",
            "type": "many2one"
        },
        "create_date": {
            "string": "Created on",
            "type": "datetime"
        },
        "branch_id": {
            "string": "Branch",
            "type": "many2one"
        },
        "remaining_qty": {
            "string": "Remaining Quantity",
            "type": "float"
        },
        "__last_update": {
            "string": "Last Modified on",
            "type": "datetime"
        },
        "product_qty": {
            "string": "Request Quantity",
            "type": "float"
        },
        "create_uid": {
            "string": "Created by",
            "type": "many2one"
        },
        "write_date": {
            "string": "Last Updated on",
            "type": "datetime"
        },
        "product_id": {
            "string": "Product",
            "type": "many2one"
        },
        "product_uom": {
            "string": "Product Unit of Measure",
            "type": "many2one"
        },
        "requisition_qty": {
            "string": "Requisition Quantity",
            "type": "float"
        }
    }
}