{
    "id": 523,
    "name": "purchase.requisition.wizard",
    "description": "purchase.requisition.wizard",
    "modelFields": {
        "display_name": {
            "string": "Display Name",
            "type": "char"
        },
        "name": {
            "string": "Project WBS Name",
            "type": "many2one"
        },
        "is_red": {
            "string": "Is red",
            "type": "boolean"
        },
        "sub_project": {
            "string": "Sub Project",
            "type": "many2one"
        },
        "material": {
            "string": "Material",
            "type": "many2one"
        },
        "task_id": {
            "string": "Task",
            "type": "many2one"
        },
        "task_category": {
            "string": "Task category",
            "type": "many2one"
        },
        "task_date_type": {
            "string": "Task Date Type",
            "type": "selection"
        },
        "to_date": {
            "string": "To Date",
            "type": "date"
        },
        "material_category": {
            "string": "Material category",
            "type": "many2many"
        },
        "requisition_ids": {
            "string": "Requisition ids",
            "type": "one2many"
        },
        "create_date": {
            "string": "Created on",
            "type": "datetime"
        },
        "create_uid": {
            "string": "Created by",
            "type": "many2one"
        },
        "date_type": {
            "string": "Date Type",
            "type": "selection"
        },
        "id": {
            "string": "ID",
            "type": "integer"
        },
        "is_use": {
            "string": "Select All",
            "type": "boolean"
        },
        "write_uid": {
            "string": "Last Updated by",
            "type": "many2one"
        },
        "group_id": {
            "string": "Task Group",
            "type": "many2one"
        },
        "write_date": {
            "string": "Last Updated on",
            "type": "datetime"
        },
        "project_id": {
            "string": "Project",
            "type": "many2one"
        },
        "group_domain1": {
            "string": "Task IDs",
            "type": "char"
        },
        "from_date": {
            "string": "From Date",
            "type": "date"
        },
        "note": {
            "string": "Note:",
            "type": "text"
        },
        "group_domain": {
            "string": "Domain",
            "type": "char"
        },
        "__last_update": {
            "string": "Last Modified on",
            "type": "datetime"
        }
    }
}