{
    "id": 534,
    "name": "purchase.advance.line",
    "description": "purchase.advance.line",
    "modelFields": {
        "balance_amount": {
            "string": "Balance Amount",
            "type": "float"
        },
        "display_name": {
            "string": "Display Name",
            "type": "char"
        },
        "recovered_till_date": {
            "string": "Recovered Till Date",
            "type": "float"
        },
        "write_uid": {
            "string": "Last Updated by",
            "type": "many2one"
        },
        "name": {
            "string": "Name",
            "type": "char"
        },
        "this_bill_recovery": {
            "string": "This Bill Recovery",
            "type": "float"
        },
        "sub_project": {
            "string": "Sub Project",
            "type": "many2one"
        },
        "is_use": {
            "string": "Is Use",
            "type": "boolean"
        },
        "payment_refrence": {
            "string": "Cheque/DD/UTR No",
            "type": "char"
        },
        "id": {
            "string": "ID",
            "type": "integer"
        },
        "bank_name": {
            "string": "Bank name",
            "type": "char"
        },
        "total_recovery": {
            "string": "Total Recovery",
            "type": "float"
        },
        "advance_recovery_line_id": {
            "string": "Advance",
            "type": "many2one"
        },
        "write_date": {
            "string": "Last Updated on",
            "type": "datetime"
        },
        "project_id": {
            "string": "Project",
            "type": "many2one"
        },
        "__last_update": {
            "string": "Last Modified on",
            "type": "datetime"
        },
        "create_uid": {
            "string": "Created by",
            "type": "many2one"
        },
        "transaction_date": {
            "string": "Transaction Date",
            "type": "date"
        },
        "advance_amount": {
            "string": "Advance Amount",
            "type": "float"
        },
        "purchase_order_id": {
            "string": "Purchase Order",
            "type": "many2one"
        },
        "create_date": {
            "string": "Created on",
            "type": "datetime"
        }
    }
}