{
    "id": 518,
    "name": "purchase.requisition",
    "description": "Purchase Requisition",
    "modelFields": {
        "vendor_id": {
            "string": "Vendor",
            "type": "many2one"
        },
        "message_is_follower": {
            "string": "Is Follower",
            "type": "boolean"
        },
        "requisition_qty": {
            "string": "Requisition Qty",
            "type": "float"
        },
        "total_ordered_qty": {
            "string": "Ordered Qty",
            "type": "float"
        },
        "display_name": {
            "string": "Display Name",
            "type": "char"
        },
        "mesge_ids": {
            "string": "Message",
            "type": "one2many"
        },
        "task_id": {
            "string": "Task",
            "type": "many2one"
        },
        "material_id": {
            "string": "Material",
            "type": "many2one"
        },
        "estimation_id": {
            "string": "Estimate No.",
            "type": "many2one"
        },
        "model": {
            "string": "Related Document Model",
            "type": "char"
        },
        "type_id": {
            "string": "Agreement Type",
            "type": "many2one"
        },
        "total_approved_qty": {
            "string": "Approved Qty",
            "type": "float"
        },
        "material_category": {
            "string": "Material Category",
            "type": "many2one",
            "help": "Select category for the current product"
        },
        "sub_project": {
            "string": "Sub Project",
            "type": "many2one"
        },
        "unit": {
            "string": "Unit many2one",
            "type": "many2one"
        },
        "remark": {
            "string": "Remark",
            "type": "char"
        },
        "requisition_fulfill": {
            "string": "Req fulfill",
            "type": "boolean"
        },
        "state": {
            "string": "State",
            "type": "selection"
        },
        "create_date": {
            "string": "Created on",
            "type": "datetime"
        },
        "purchase_ids": {
            "string": "Purchase Orders",
            "type": "many2one"
        },
        "write_date": {
            "string": "Last Updated on",
            "type": "datetime"
        },
        "line_ids": {
            "string": "Products to Purchase",
            "type": "one2many"
        },
        "project_id": {
            "string": "Project",
            "type": "many2one"
        },
        "is_use": {
            "string": "Use",
            "type": "boolean"
        },
        "write_uid": {
            "string": "Last Updated by",
            "type": "many2one"
        },
        "message_needaction_counter": {
            "string": "Number of Actions",
            "type": "integer",
            "help": "Number of messages which requires an action"
        },
        "rate": {
            "string": "Rate",
            "type": "float"
        },
        "project_wbs": {
            "string": "project WBS",
            "type": "many2one"
        },
        "requisition_date": {
            "string": "Date",
            "type": "date"
        },
        "message_follower_ids": {
            "string": "Followers",
            "type": "one2many"
        },
        "flag": {
            "string": "Flag",
            "type": "boolean"
        },
        "estimated_qty": {
            "string": "Estimated Qty",
            "type": "float"
        },
        "message_partner_ids": {
            "string": "Followers (Partners)",
            "type": "many2many"
        },
        "date_end": {
            "string": "Agreement Deadline",
            "type": "datetime"
        },
        "message_unread_counter": {
            "string": "Unread Messages Counter",
            "type": "integer",
            "help": "Number of unread messages"
        },
        "description": {
            "string": "Description",
            "type": "text"
        },
        "company_id": {
            "string": "Company",
            "type": "many2one"
        },
        "status": {
            "string": "Status",
            "type": "selection"
        },
        "name": {
            "string": "Name",
            "type": "char"
        },
        "requisition_as_on_date": {
            "string": "Requisition as on date",
            "type": "float"
        },
        "create_uid": {
            "string": "Created by",
            "type": "many2one"
        },
        "warehouse_id": {
            "string": "Procurement Type",
            "type": "char"
        },
        "stage_id": {
            "string": "Stage",
            "type": "many2one"
        },
        "brand_id": {
            "string": "Brand",
            "type": "many2one"
        },
        "task_category": {
            "string": "Task Category",
            "type": "many2one"
        },
        "message_channel_ids": {
            "string": "Followers (Channels)",
            "type": "many2many"
        },
        "message_unread": {
            "string": "Unread Messages",
            "type": "boolean",
            "help": "If checked new messages require your attention."
        },
        "__last_update": {
            "string": "Last Modified on",
            "type": "datetime"
        },
        "procurement_type": {
            "string": "Procurement Type",
            "type": "selection"
        },
        "related_task_category": {
            "string": "Category",
            "type": "many2one"
        },
        "schedule_date": {
            "string": "Delivery Date",
            "type": "date",
            "help": "The expected and scheduled delivery date where all the products are received"
        },
        "procurement_date": {
            "string": "Procurement Date",
            "type": "date"
        },
        "purchase_indent_ids": {
            "string": "Purchase Indent",
            "type": "many2many"
        },
        "specification": {
            "string": "Specification",
            "type": "char"
        },
        "requisition_type": {
            "string": "Type",
            "type": "selection"
        },
        "user_id": {
            "string": "Responsible",
            "type": "many2one"
        },
        "quantity": {
            "string": "Quantity",
            "type": "integer"
        },
        "website_message_ids": {
            "string": "Website Messages",
            "type": "one2many",
            "help": "Website communication history"
        },
        "message_ids": {
            "string": "Messages",
            "type": "one2many"
        },
        "message_last_post": {
            "string": "Last Message Date",
            "type": "datetime",
            "help": "Date of the last message posted on the record."
        },
        "id": {
            "string": "ID",
            "type": "integer"
        },
        "account_analytic_id": {
            "string": "Analytic Account",
            "type": "many2one"
        },
        "group_id": {
            "string": "Task Group",
            "type": "many2one"
        },
        "balance_qty": {
            "string": "Balance Qty",
            "type": "float"
        },
        "branch_id": {
            "string": "Branch",
            "type": "many2one"
        },
        "message_needaction": {
            "string": "Action Needed",
            "type": "boolean",
            "help": "If checked, new messages require your attention."
        },
        "picking_type_id": {
            "string": "Operation Type",
            "type": "many2one"
        },
        "order_count": {
            "string": "Number of Orders",
            "type": "integer"
        },
        "me_sequence": {
            "string": "Me sequence",
            "type": "char"
        },
        "current_req_qty": {
            "string": "Current requisition Qty",
            "type": "float"
        },
        "origin": {
            "string": "Source Document",
            "type": "char"
        },
        "ordering_date": {
            "string": "Ordering Date",
            "type": "date"
        },
        "requirement_date": {
            "string": "Requirement Date",
            "type": "date"
        },
        "priority": {
            "string": "Priority",
            "type": "selection"
        }
    }
}