{
    "id": 533,
    "name": "purchase.advance",
    "description": "purchase.advance",
    "modelFields": {
        "display_name": {
            "string": "Display Name",
            "type": "char"
        },
        "company_id": {
            "string": "Company ID",
            "type": "many2one"
        },
        "name": {
            "string": "Name",
            "type": "char"
        },
        "total_payable": {
            "string": "Total Payable",
            "type": "float"
        },
        "mesge_ids": {
            "string": "Massage",
            "type": "one2many"
        },
        "write_uid": {
            "string": "Last Updated by",
            "type": "many2one"
        },
        "stage_id": {
            "string": "Stage",
            "type": "many2one"
        },
        "id": {
            "string": "ID",
            "type": "integer"
        },
        "project_wbs": {
            "string": "Project WBS",
            "type": "many2one"
        },
        "project_id": {
            "string": "Project",
            "type": "many2one"
        },
        "supplier_id": {
            "string": "Supplier",
            "type": "many2one"
        },
        "total_deb_rec": {
            "string": "Total Debit Received",
            "type": "float"
        },
        "flag": {
            "string": "Flag",
            "type": "boolean"
        },
        "create_uid": {
            "string": "Created by",
            "type": "many2one"
        },
        "sub_project": {
            "string": "Sub Project",
            "type": "many2one"
        },
        "__last_update": {
            "string": "Last Modified on",
            "type": "datetime"
        },
        "write_date": {
            "string": "Last Updated on",
            "type": "datetime"
        },
        "total_adv_rec": {
            "string": "Total Advance Received",
            "type": "float"
        },
        "purchase_order_id": {
            "string": "Purchase Order",
            "type": "many2one"
        },
        "create_date": {
            "string": "Created on",
            "type": "datetime"
        }
    }
}