{
    "id": 462,
    "name": "quotation.compare.contractor5",
    "description": "quotation.compare.contractor5",
    "modelFields": {
        "tax_id": {
            "string": "Taxes",
            "type": "many2one"
        },
        "display_name": {
            "string": "Display Name",
            "type": "char"
        },
        "write_uid": {
            "string": "Last Updated by",
            "type": "many2one"
        },
        "is_approve": {
            "string": "Approve",
            "type": "boolean"
        },
        "create_date": {
            "string": "Created on",
            "type": "datetime"
        },
        "currency_id": {
            "string": "Currency",
            "type": "many2one"
        },
        "quotation_comp_cont5_id": {
            "string": "Quotation",
            "type": "many2one"
        },
        "negotiated_rate": {
            "string": "Nego.Rate",
            "type": "float"
        },
        "contractor_id": {
            "string": "contractor",
            "type": "many2one"
        },
        "id": {
            "string": "ID",
            "type": "integer"
        },
        "write_date": {
            "string": "Last Updated on",
            "type": "datetime"
        },
        "quotation_comp_cont5_detail_id": {
            "string": "labor Quotation details",
            "type": "many2one"
        },
        "labor_id": {
            "string": "Particularr",
            "type": "many2one"
        },
        "create_uid": {
            "string": "Created by",
            "type": "many2one"
        },
        "amount": {
            "string": "Amount",
            "type": "float"
        },
        "__last_update": {
            "string": "Last Modified on",
            "type": "datetime"
        }
    }
}