{
    "id": 549,
    "name": "quotation.compare.vendor6",
    "description": "quotation.compare.vendor6",
    "modelFields": {
        "tax_id": {
            "string": "Taxes",
            "type": "many2many"
        },
        "amount": {
            "string": "Amount",
            "type": "float"
        },
        "write_uid": {
            "string": "Last Updated by",
            "type": "many2one"
        },
        "is_approve": {
            "string": "Approve",
            "type": "boolean"
        },
        "quotation_comp_ven6_id": {
            "string": "Quotation",
            "type": "many2one"
        },
        "quotation_comp_ven6_detail_id": {
            "string": "Quotation details",
            "type": "many2one"
        },
        "currency_id": {
            "string": "Currency",
            "type": "many2one"
        },
        "display_name": {
            "string": "Display Name",
            "type": "char"
        },
        "negotiated_rate": {
            "string": "Nego.Rate",
            "type": "float"
        },
        "id": {
            "string": "ID",
            "type": "integer"
        },
        "create_date": {
            "string": "Created on",
            "type": "datetime"
        },
        "write_date": {
            "string": "Last Updated on",
            "type": "datetime"
        },
        "create_uid": {
            "string": "Created by",
            "type": "many2one"
        },
        "__last_update": {
            "string": "Last Modified on",
            "type": "datetime"
        },
        "vendor_id": {
            "string": "Vendor",
            "type": "many2one"
        },
        "product_id": {
            "string": "Particular",
            "type": "many2one"
        }
    }
}