{
    "id": 485,
    "name": "ra.bill",
    "description": "ra.bill",
    "modelFields": {
        "labor_uom": {
            "string": "Unit of Measure",
            "type": "many2one"
        },
        "wo_balance_debit": {
            "string": "WO Balance Debit",
            "type": "float",
            "help": "Balance debit amount"
        },
        "debit_note_ids": {
            "string": "Debit note ids",
            "type": "one2many"
        },
        "create_date": {
            "string": "Created on",
            "type": "datetime"
        },
        "currency_id": {
            "string": "Currency",
            "type": "many2one"
        },
        "mesge_ids": {
            "string": "Message",
            "type": "one2many"
        },
        "task_id": {
            "string": "Task",
            "type": "many2one"
        },
        "amount_paid": {
            "string": "Amount",
            "type": "float"
        },
        "id": {
            "string": "ID",
            "type": "integer"
        },
        "retention_percent": {
            "string": "Retention(%)",
            "type": "integer"
        },
        "labor_id": {
            "string": "labor",
            "type": "many2one"
        },
        "tax_line_ids": {
            "string": "Tax Line",
            "type": "one2many"
        },
        "remark": {
            "string": "Remark",
            "type": "char"
        },
        "total_debit_recovery_amt_for_current_wo": {
            "string": "debit recovery of wo",
            "type": "float",
            "help": "debit recovery amount for current wo"
        },
        "state": {
            "string": "State",
            "type": "selection"
        },
        "write_date": {
            "string": "Last Updated on",
            "type": "datetime"
        },
        "advance_recovery_ids": {
            "string": "Advance recovery ids",
            "type": "one2many"
        },
        "workorder_id": {
            "string": "Work Order",
            "type": "many2one"
        },
        "total_advance_recovery_amt_for_current_wo": {
            "string": "advance recovery of wo",
            "type": "float",
            "help": "advance recovery amount for current wo"
        },
        "project_id": {
            "string": "Project",
            "type": "many2one"
        },
        "write_uid": {
            "string": "Last Updated by",
            "type": "many2one"
        },
        "total_credit_amt": {
            "string": "Total Credit",
            "type": "float"
        },
        "wo_balance_advance": {
            "string": "WO Balance Advance",
            "type": "float",
            "help": "Balance advance amount"
        },
        "contractor_id": {
            "string": "Contractor",
            "type": "many2one"
        },
        "till_date_billed": {
            "string": "Till Date Billed",
            "type": "float"
        },
        "rate": {
            "string": "Rate",
            "type": "float"
        },
        "project_wbs": {
            "string": "Project Wbs",
            "type": "many2one"
        },
        "sub_project": {
            "string": "Sub Project",
            "type": "many2one"
        },
        "total_debit_recovery_amt": {
            "string": "Total Debit Recovery",
            "type": "float"
        },
        "rabill_line_ids": {
            "string": "Rabill line ids",
            "type": "one2many"
        },
        "total_advance_recovery_amt": {
            "string": "Total Adv recovery",
            "type": "float"
        },
        "__last_update": {
            "string": "Last Modified on",
            "type": "datetime"
        },
        "final_total_payable": {
            "string": "Total Payable",
            "type": "float",
            "help": "This is total payable incuding debit,credit,advance"
        },
        "group_id": {
            "string": "Group",
            "type": "many2one"
        },
        "name": {
            "string": "Bill No.",
            "type": "char"
        },
        "create_uid": {
            "string": "Created by",
            "type": "many2one"
        },
        "display_name": {
            "string": "Display Name",
            "type": "char"
        },
        "stage_id": {
            "string": "Stage",
            "type": "many2one"
        },
        "credit_note_ids": {
            "string": "Credit note ids",
            "type": "one2many"
        },
        "contact_person_id": {
            "string": "Contact Person",
            "type": "many2one"
        },
        "balanced_amt": {
            "string": "Balanced Amount",
            "type": "float"
        },
        "work_completion_line_sequence": {
            "string": "Completion Detail No",
            "type": "integer"
        },
        "category_id": {
            "string": "Category id",
            "type": "many2one"
        },
        "pan_no": {
            "string": "PAN NO",
            "type": "char"
        },
        "wo_total_amt": {
            "string": "Work Order Amt",
            "type": "float"
        },
        "completion_percent": {
            "string": "Completion %",
            "type": "float"
        },
        "quantity": {
            "string": "Quantity",
            "type": "integer"
        },
        "total_payable_amt": {
            "string": "Basic Amt",
            "type": "float",
            "help": "This is total payable excluding debit,credit,advance"
        },
        "workorder_line_id": {
            "string": "WO Detail No",
            "type": "many2one"
        },
        "wo_line_id": {
            "string": "WO Detail No.",
            "type": "integer"
        },
        "service_tax_no": {
            "string": "Service tax No.",
            "type": "integer"
        },
        "total_credit_recovery_amt_for_current_wo": {
            "string": "credit recovery of wo",
            "type": "float",
            "help": "credit recovery amount for current wo"
        },
        "mobile": {
            "string": "Mobile",
            "type": "char"
        },
        "retention_amount": {
            "string": "Retention",
            "type": "integer",
            "help": "Retention amount of workorder=(retn *100)/untaxed amt"
        },
        "work_completion_sequence": {
            "string": "Completion No",
            "type": "many2one"
        }
    }
}