{
    "id": 702,
    "name": "report.membership",
    "description": "Membership Analysis",
    "modelFields": {
        "num_waiting": {
            "string": "# Waiting",
            "type": "integer"
        },
        "num_invoiced": {
            "string": "# Invoiced",
            "type": "integer"
        },
        "quantity": {
            "string": "Quantity",
            "type": "integer"
        },
        "num_paid": {
            "string": "# Paid",
            "type": "integer"
        },
        "partner_id": {
            "string": "Member",
            "type": "many2one"
        },
        "display_name": {
            "string": "Display Name",
            "type": "char"
        },
        "tot_earned": {
            "string": "Earned Amount",
            "type": "float"
        },
        "date_to": {
            "string": "End Date",
            "type": "date",
            "help": "End membership date"
        },
        "id": {
            "string": "ID",
            "type": "integer"
        },
        "membership_id": {
            "string": "Membership Product",
            "type": "many2one"
        },
        "company_id": {
            "string": "Company",
            "type": "many2one"
        },
        "associate_member_id": {
            "string": "Associate Member",
            "type": "many2one"
        },
        "user_id": {
            "string": "Salesperson",
            "type": "many2one"
        },
        "start_date": {
            "string": "Start Date",
            "type": "date"
        },
        "tot_pending": {
            "string": "Pending Amount",
            "type": "float"
        },
        "membership_state": {
            "string": "Current Membership State",
            "type": "selection"
        },
        "__last_update": {
            "string": "Last Modified on",
            "type": "datetime"
        }
    }
}