{
    "id": 87,
    "name": "res.groups",
    "description": "Access Groups",
    "modelFields": {
        "display_name": {
            "string": "Display Name",
            "type": "char"
        },
        "write_uid": {
            "string": "Last Updated by",
            "type": "many2one"
        },
        "trans_implied_ids": {
            "string": "Transitively inherits",
            "type": "many2many"
        },
        "name": {
            "string": "Name",
            "type": "char"
        },
        "rule_groups": {
            "string": "Rules",
            "type": "many2many"
        },
        "is_portal": {
            "string": "Portal",
            "type": "boolean",
            "help": "If checked, this group is usable as a portal."
        },
        "comment": {
            "string": "Comment",
            "type": "text"
        },
        "id": {
            "string": "ID",
            "type": "integer"
        },
        "share": {
            "string": "Share Group",
            "type": "boolean",
            "help": "Group created to set access rights for sharing data with some users."
        },
        "full_name": {
            "string": "Group Name",
            "type": "char"
        },
        "model_access": {
            "string": "Access Controls",
            "type": "one2many"
        },
        "menu_access": {
            "string": "Access Menu",
            "type": "many2many"
        },
        "__last_update": {
            "string": "Last Modified on",
            "type": "datetime"
        },
        "users": {
            "string": "Users",
            "type": "many2many"
        },
        "color": {
            "string": "Color Index",
            "type": "integer"
        },
        "create_uid": {
            "string": "Created by",
            "type": "many2one"
        },
        "category_id": {
            "string": "Application",
            "type": "many2one"
        },
        "implied_ids": {
            "string": "Inherits",
            "type": "many2many",
            "help": "Users of this group automatically inherit those groups"
        },
        "create_date": {
            "string": "Created on",
            "type": "datetime"
        },
        "write_date": {
            "string": "Last Updated on",
            "type": "datetime"
        },
        "view_access": {
            "string": "Views",
            "type": "many2many"
        }
    }
}