{
    "id": 70,
    "name": "res.country",
    "description": "Country",
    "modelFields": {
        "display_name": {
            "string": "Display Name",
            "type": "char"
        },
        "write_uid": {
            "string": "Last Updated by",
            "type": "many2one"
        },
        "name": {
            "string": "Country Name",
            "type": "char",
            "help": "The full name of the country."
        },
        "currency_id": {
            "string": "Currency",
            "type": "many2one"
        },
        "state_ids": {
            "string": "States",
            "type": "one2many"
        },
        "name_position": {
            "string": "Customer Name Position",
            "type": "selection",
            "help": "Determines where the customer/company name should be placed, i.e. after or before the address."
        },
        "enforce_cities": {
            "string": "Enforce Cities",
            "type": "boolean",
            "help": "Check this box to ensure every address created in that country has a 'City' chosen in the list of the country's cities."
        },
        "id": {
            "string": "ID",
            "type": "integer"
        },
        "code": {
            "string": "Country Code",
            "type": "char",
            "help": "The ISO country code in two chars. \nYou can use this field for quick search."
        },
        "write_date": {
            "string": "Last Updated on",
            "type": "datetime"
        },
        "country_group_ids": {
            "string": "Country Groups",
            "type": "many2many"
        },
        "address_view_id": {
            "string": "Input View",
            "type": "many2one",
            "help": "Use this field if you want to replace the usual way to encode a complete address. Note that the address_format field is used to modify the way to display addresses (in reports for example), while this field is used to modify the input form for addresses."
        },
        "image": {
            "string": "Image",
            "type": "binary"
        },
        "__last_update": {
            "string": "Last Modified on",
            "type": "datetime"
        },
        "create_uid": {
            "string": "Created by",
            "type": "many2one"
        },
        "phone_code": {
            "string": "Country Calling Code",
            "type": "integer"
        },
        "iso_code3": {
            "string": "ISO Country Code",
            "type": "char",
            "help": "The ISO country code in three chars. \nYou can use this field for quick search."
        },
        "address_format": {
            "string": "Layout in Reports",
            "type": "text",
            "help": "Display format to use for addresses belonging to this country.\n\nYou can use python-style string pattern with all the fields of the address (for example, use '%(street)s' to display the field 'street') plus\n%(state_name)s: the name of the state\n%(state_code)s: the code of the state\n%(country_name)s: the name of the country\n%(country_code)s: the code of the country"
        },
        "vat_label": {
            "string": "Vat Label",
            "type": "char",
            "help": "Use this field if you want to change vat label."
        },
        "street_format": {
            "string": "Street Format",
            "type": "text",
            "help": "Format to use for streets belonging to this country.\n\nYou can use the python-style string pattern with all the fields of the street (for example, use '%(street_name)s, %(street_number)s' if you want to display the street name, followed by a comma and the house number)\n%(street_name)s: the name of the street\n%(street_number)s: the house number\n%(street_number2)s: the door number"
        },
        "create_date": {
            "string": "Created on",
            "type": "datetime"
        }
    }
}