{
    "id": 259,
    "name": "sale.layout_category",
    "description": "sale.layout_category",
    "modelFields": {
        "write_date": {
            "string": "Last Updated on",
            "type": "datetime"
        },
        "display_name": {
            "string": "Display Name",
            "type": "char"
        },
        "write_uid": {
            "string": "Last Updated by",
            "type": "many2one"
        },
        "name": {
            "string": "Name",
            "type": "char"
        },
        "pagebreak": {
            "string": "Add pagebreak",
            "type": "boolean"
        },
        "id": {
            "string": "ID",
            "type": "integer"
        },
        "sequence": {
            "string": "Sequence",
            "type": "integer"
        },
        "create_uid": {
            "string": "Created by",
            "type": "many2one"
        },
        "subtotal": {
            "string": "Add subtotal",
            "type": "boolean"
        },
        "__last_update": {
            "string": "Last Modified on",
            "type": "datetime"
        },
        "create_date": {
            "string": "Created on",
            "type": "datetime"
        }
    }
}