{
    "id": 393,
    "name": "sale.discount.config",
    "description": "sale.discount.config",
    "modelFields": {
        "write_date": {
            "string": "Last Updated on",
            "type": "datetime"
        },
        "display_name": {
            "string": "Display Name",
            "type": "char"
        },
        "write_uid": {
            "string": "Last Updated by",
            "type": "many2one"
        },
        "create_date": {
            "string": "Created on",
            "type": "datetime"
        },
        "id": {
            "string": "ID",
            "type": "integer"
        },
        "fix_amount": {
            "string": "Fix Amount",
            "type": "float"
        },
        "create_uid": {
            "string": "Created by",
            "type": "many2one"
        },
        "percentage": {
            "string": "Percentage",
            "type": "float"
        },
        "group_id": {
            "string": "Groups",
            "type": "many2one"
        },
        "__last_update": {
            "string": "Last Modified on",
            "type": "datetime"
        }
    }
}