{
    "id": 552,
    "name": "short.supply.wizard",
    "description": "short.supply.wizard",
    "modelFields": {
        "partner_id": {
            "string": "Vendor",
            "type": "many2one"
        },
        "write_uid": {
            "string": "Last Updated by",
            "type": "many2one"
        },
        "create_date": {
            "string": "Created on",
            "type": "datetime"
        },
        "display_name": {
            "string": "Display Name",
            "type": "char"
        },
        "sub_project": {
            "string": "Sub Project",
            "type": "many2one"
        },
        "stage_id": {
            "string": "Stage",
            "type": "many2one"
        },
        "id": {
            "string": "ID",
            "type": "integer"
        },
        "order_line": {
            "string": "Order Lines",
            "type": "one2many"
        },
        "project_wbs": {
            "string": "Project WBS",
            "type": "many2one"
        },
        "project_id": {
            "string": "Project",
            "type": "many2one"
        },
        "to_date": {
            "string": "To Date",
            "type": "datetime"
        },
        "from_date": {
            "string": "From Date",
            "type": "date"
        },
        "create_uid": {
            "string": "Created by",
            "type": "many2one"
        },
        "write_date": {
            "string": "Last Updated on",
            "type": "datetime"
        },
        "purchase_order_id": {
            "string": "Purchase Order",
            "type": "many2one"
        },
        "__last_update": {
            "string": "Last Modified on",
            "type": "datetime"
        }
    }
}