{
    "id": 344,
    "name": "stock.inventory.line",
    "description": "Inventory Line",
    "modelFields": {
        "product_uom_id": {
            "string": "Product Unit of Measure",
            "type": "many2one"
        },
        "display_name": {
            "string": "Display Name",
            "type": "char"
        },
        "location_name": {
            "string": "Location Name",
            "type": "char"
        },
        "product_name": {
            "string": "Product Name",
            "type": "char"
        },
        "create_date": {
            "string": "Created on",
            "type": "datetime"
        },
        "create_uid": {
            "string": "Created by",
            "type": "many2one"
        },
        "company_id": {
            "string": "Company",
            "type": "many2one"
        },
        "theoretical_qty": {
            "string": "Theoretical Quantity",
            "type": "float"
        },
        "product_qty": {
            "string": "Checked Quantity",
            "type": "float"
        },
        "location_id": {
            "string": "Location",
            "type": "many2one"
        },
        "state": {
            "string": "Status",
            "type": "selection"
        },
        "product_code": {
            "string": "Product Code",
            "type": "char"
        },
        "partner_id": {
            "string": "Owner",
            "type": "many2one"
        },
        "write_date": {
            "string": "Last Updated on",
            "type": "datetime"
        },
        "product_id": {
            "string": "Product",
            "type": "many2one"
        },
        "id": {
            "string": "ID",
            "type": "integer"
        },
        "inventory_id": {
            "string": "Inventory",
            "type": "many2one"
        },
        "write_uid": {
            "string": "Last Updated by",
            "type": "many2one"
        },
        "prodlot_name": {
            "string": "Serial Number Name",
            "type": "char",
            "help": "Unique Lot/Serial Number"
        },
        "branch_id": {
            "string": "Branch",
            "type": "many2one"
        },
        "package_id": {
            "string": "Pack",
            "type": "many2one"
        },
        "__last_update": {
            "string": "Last Modified on",
            "type": "datetime"
        },
        "inventory_location_id": {
            "string": "Location",
            "type": "many2one"
        },
        "prod_lot_id": {
            "string": "Lot/Serial Number",
            "type": "many2one"
        }
    }
}