{
    "id": 732,
    "name": "stock.valuation.adjustment.lines",
    "description": "Stock Valuation Adjustment Lines",
    "modelFields": {
        "volume": {
            "string": "Volume",
            "type": "float"
        },
        "quantity": {
            "string": "Quantity",
            "type": "float"
        },
        "write_uid": {
            "string": "Last Updated by",
            "type": "many2one"
        },
        "name": {
            "string": "Description",
            "type": "char"
        },
        "id": {
            "string": "ID",
            "type": "integer"
        },
        "cost_line_id": {
            "string": "Cost Line",
            "type": "many2one"
        },
        "cost_id": {
            "string": "Landed Cost",
            "type": "many2one"
        },
        "create_uid": {
            "string": "Created by",
            "type": "many2one"
        },
        "additional_landed_cost": {
            "string": "Additional Landed Cost",
            "type": "float"
        },
        "weight": {
            "string": "Weight",
            "type": "float"
        },
        "write_date": {
            "string": "Last Updated on",
            "type": "datetime"
        },
        "display_name": {
            "string": "Display Name",
            "type": "char"
        },
        "final_cost": {
            "string": "Final Cost",
            "type": "float"
        },
        "former_cost": {
            "string": "Former Cost",
            "type": "float"
        },
        "former_cost_per_unit": {
            "string": "Former Cost(Per Unit)",
            "type": "float"
        },
        "move_id": {
            "string": "Stock Move",
            "type": "many2one"
        },
        "create_date": {
            "string": "Created on",
            "type": "datetime"
        },
        "__last_update": {
            "string": "Last Modified on",
            "type": "datetime"
        },
        "product_id": {
            "string": "Product",
            "type": "many2one"
        }
    }
}