{
    "id": 347,
    "name": "stock.location.path",
    "description": "Pushed Flow",
    "modelFields": {
        "auto": {
            "string": "Automatic Move",
            "type": "selection",
            "help": "The 'Manual Operation' value will create a stock move after the current one. With 'Automatic No Step Added', the location is replaced in the original move."
        },
        "route_id": {
            "string": "Route",
            "type": "many2one"
        },
        "active": {
            "string": "Active",
            "type": "boolean"
        },
        "company_id": {
            "string": "Company",
            "type": "many2one"
        },
        "name": {
            "string": "Operation Name",
            "type": "char"
        },
        "location_from_id": {
            "string": "Source Location",
            "type": "many2one",
            "help": "This rule can be applied when a move is confirmed that has this location as destination location"
        },
        "display_name": {
            "string": "Display Name",
            "type": "char"
        },
        "location_dest_id": {
            "string": "Destination Location",
            "type": "many2one",
            "help": "The new location where the goods need to go"
        },
        "sequence": {
            "string": "Sequence",
            "type": "integer"
        },
        "id": {
            "string": "ID",
            "type": "integer"
        },
        "warehouse_id": {
            "string": "Warehouse",
            "type": "many2one"
        },
        "write_date": {
            "string": "Last Updated on",
            "type": "datetime"
        },
        "delay": {
            "string": "Delay (days)",
            "type": "integer",
            "help": "Number of days needed to transfer the goods"
        },
        "picking_type_id": {
            "string": "Operation Type",
            "type": "many2one",
            "help": "This is the operation type that will be put on the stock moves"
        },
        "create_uid": {
            "string": "Created by",
            "type": "many2one"
        },
        "write_uid": {
            "string": "Last Updated by",
            "type": "many2one"
        },
        "__last_update": {
            "string": "Last Modified on",
            "type": "datetime"
        },
        "create_date": {
            "string": "Created on",
            "type": "datetime"
        },
        "route_sequence": {
            "string": "Route Sequence",
            "type": "integer"
        },
        "propagate": {
            "string": "Propagate cancel and split",
            "type": "boolean",
            "help": "If checked, when the previous move is cancelled or split, the move generated by this move will too"
        }
    }
}