{
    "id": 731,
    "name": "stock.landed.cost.lines",
    "description": "Stock Landed Cost Lines",
    "modelFields": {
        "display_name": {
            "string": "Display Name",
            "type": "char"
        },
        "product_id": {
            "string": "Product",
            "type": "many2one"
        },
        "id": {
            "string": "ID",
            "type": "integer"
        },
        "cost_id": {
            "string": "Landed Cost",
            "type": "many2one"
        },
        "account_id": {
            "string": "Account",
            "type": "many2one"
        },
        "write_uid": {
            "string": "Last Updated by",
            "type": "many2one"
        },
        "split_method": {
            "string": "Split Method",
            "type": "selection"
        },
        "write_date": {
            "string": "Last Updated on",
            "type": "datetime"
        },
        "__last_update": {
            "string": "Last Modified on",
            "type": "datetime"
        },
        "create_uid": {
            "string": "Created by",
            "type": "many2one"
        },
        "price_unit": {
            "string": "Cost",
            "type": "float"
        },
        "create_date": {
            "string": "Created on",
            "type": "datetime"
        },
        "name": {
            "string": "Description",
            "type": "char"
        }
    }
}