{
    "id": 363,
    "name": "stock.scheduler.compute",
    "description": "Run Scheduler Manually",
    "modelFields": {
        "write_date": {
            "string": "Last Updated on",
            "type": "datetime"
        },
        "display_name": {
            "string": "Display Name",
            "type": "char"
        },
        "create_date": {
            "string": "Created on",
            "type": "datetime"
        },
        "create_uid": {
            "string": "Created by",
            "type": "many2one"
        },
        "write_uid": {
            "string": "Last Updated by",
            "type": "many2one"
        },
        "id": {
            "string": "ID",
            "type": "integer"
        },
        "__last_update": {
            "string": "Last Modified on",
            "type": "datetime"
        }
    }
}