{
    "id": 343,
    "name": "stock.inventory",
    "description": "Inventory",
    "modelFields": {
        "display_name": {
            "string": "Display Name",
            "type": "char"
        },
        "company_id": {
            "string": "Company",
            "type": "many2one"
        },
        "create_date": {
            "string": "Created on",
            "type": "datetime"
        },
        "lot_id": {
            "string": "Inventoried Lot/Serial Number",
            "type": "many2one",
            "help": "Specify Lot/Serial Number to focus your inventory on a particular Lot/Serial Number."
        },
        "create_uid": {
            "string": "Created by",
            "type": "many2one"
        },
        "accounting_date": {
            "string": "Force Accounting Date",
            "type": "date",
            "help": "Choose the accounting date at which you want to value the stock moves created by the inventory instead of the default one (the inventory end date)"
        },
        "package_id": {
            "string": "Inventoried Pack",
            "type": "many2one",
            "help": "Specify Pack to focus your inventory on a particular Pack."
        },
        "category_id": {
            "string": "Inventoried Category",
            "type": "many2one",
            "help": "Specify Product Category to focus your inventory on a particular Category."
        },
        "location_id": {
            "string": "Inventoried Location",
            "type": "many2one"
        },
        "state": {
            "string": "Status",
            "type": "selection"
        },
        "name": {
            "string": "Inventory Reference",
            "type": "char"
        },
        "partner_id": {
            "string": "Inventoried Owner",
            "type": "many2one",
            "help": "Specify Owner to focus your inventory on a particular Owner."
        },
        "filter": {
            "string": "Inventory of",
            "type": "selection",
            "help": "If you do an entire inventory, you can choose 'All Products' and it will prefill the inventory with the current stock.  If you only do some products  (e.g. Cycle Counting) you can choose 'Manual Selection of Products' and the system won't propose anything.  You can also let the system propose for a single product / lot /... "
        },
        "write_date": {
            "string": "Last Updated on",
            "type": "datetime"
        },
        "product_id": {
            "string": "Inventoried Product",
            "type": "many2one",
            "help": "Specify Product to focus your inventory on a particular Product."
        },
        "id": {
            "string": "ID",
            "type": "integer"
        },
        "write_uid": {
            "string": "Last Updated by",
            "type": "many2one"
        },
        "branch_id": {
            "string": "Branch",
            "type": "many2one"
        },
        "line_ids": {
            "string": "Inventories",
            "type": "one2many"
        },
        "total_qty": {
            "string": "Total Quantity",
            "type": "float"
        },
        "exhausted": {
            "string": "Include Exhausted Products",
            "type": "boolean"
        },
        "date": {
            "string": "Inventory Date",
            "type": "datetime",
            "help": "The date that will be used for the stock level check of the products and the validation of the stock move related to this inventory."
        },
        "move_ids": {
            "string": "Created Moves",
            "type": "one2many"
        },
        "__last_update": {
            "string": "Last Modified on",
            "type": "datetime"
        }
    }
}