{
    "id": 659,
    "name": "subscription.reasons",
    "description": "Subscription Reasons",
    "modelFields": {
        "write_date": {
            "string": "Last Updated on",
            "type": "datetime"
        },
        "display_name": {
            "string": "Display Name",
            "type": "char"
        },
        "write_uid": {
            "string": "Last Updated by",
            "type": "many2one"
        },
        "name": {
            "string": "Reason",
            "type": "char"
        },
        "create_uid": {
            "string": "Created by",
            "type": "many2one"
        },
        "sequence": {
            "string": "Sequence",
            "type": "integer"
        },
        "id": {
            "string": "ID",
            "type": "integer"
        },
        "__last_update": {
            "string": "Last Modified on",
            "type": "datetime"
        },
        "create_date": {
            "string": "Created on",
            "type": "datetime"
        }
    }
}