{
    "id": 674,
    "name": "supportdesk.skill",
    "description": "Skills",
    "modelFields": {
        "write_date": {
            "string": "Last Updated on",
            "type": "datetime"
        },
        "display_name": {
            "string": "Display Name",
            "type": "char"
        },
        "description": {
            "string": "Skill",
            "type": "text"
        },
        "write_uid": {
            "string": "Last Updated by",
            "type": "many2one"
        },
        "name": {
            "string": "Name",
            "type": "char"
        },
        "id": {
            "string": "ID",
            "type": "integer"
        },
        "sequence": {
            "string": "Sequence",
            "type": "integer"
        },
        "create_uid": {
            "string": "Created by",
            "type": "many2one"
        },
        "agent_ids": {
            "string": "Agent",
            "type": "many2many"
        },
        "__last_update": {
            "string": "Last Modified on",
            "type": "datetime"
        },
        "create_date": {
            "string": "Created on",
            "type": "datetime"
        }
    }
}