{
    "id": 239,
    "name": "tax.adjustments.wizard",
    "description": "Wizard for Tax Adjustments",
    "modelFields": {
        "tax_id": {
            "string": "Adjustment Tax",
            "type": "many2one"
        },
        "amount": {
            "string": "Amount",
            "type": "monetary"
        },
        "credit_account_id": {
            "string": "Credit account",
            "type": "many2one"
        },
        "create_date": {
            "string": "Created on",
            "type": "datetime"
        },
        "display_name": {
            "string": "Display Name",
            "type": "char"
        },
        "write_uid": {
            "string": "Last Updated by",
            "type": "many2one"
        },
        "id": {
            "string": "ID",
            "type": "integer"
        },
        "journal_id": {
            "string": "Journal",
            "type": "many2one"
        },
        "company_currency_id": {
            "string": "Company Currency",
            "type": "many2one"
        },
        "write_date": {
            "string": "Last Updated on",
            "type": "datetime"
        },
        "__last_update": {
            "string": "Last Modified on",
            "type": "datetime"
        },
        "adjustment_type": {
            "string": "Adjustment Type",
            "type": "selection"
        },
        "create_uid": {
            "string": "Created by",
            "type": "many2one"
        },
        "debit_account_id": {
            "string": "Debit account",
            "type": "many2one"
        },
        "reason": {
            "string": "Justification",
            "type": "char"
        },
        "date": {
            "string": "Date",
            "type": "date"
        }
    }
}