{
    "id": 561,
    "name": "tax.details.vendor4",
    "description": "tax.details.vendor4",
    "modelFields": {
        "tax_id": {
            "string": "Taxes",
            "type": "many2one"
        },
        "vendor_id": {
            "string": "Vendor",
            "type": "many2one"
        },
        "tax": {
            "string": "Tax",
            "type": "float"
        },
        "quotation_comp_tax4_id": {
            "string": "Quotation",
            "type": "many2one"
        },
        "id": {
            "string": "ID",
            "type": "integer"
        },
        "display_name": {
            "string": "Display Name",
            "type": "char"
        },
        "write_uid": {
            "string": "Last Updated by",
            "type": "many2one"
        },
        "write_date": {
            "string": "Last Updated on",
            "type": "datetime"
        },
        "product_id": {
            "string": "product",
            "type": "many2one"
        },
        "create_uid": {
            "string": "Created by",
            "type": "many2one"
        },
        "__last_update": {
            "string": "Last Modified on",
            "type": "datetime"
        },
        "create_date": {
            "string": "Created on",
            "type": "datetime"
        },
        "quotation_comp_tax4_detail_id": {
            "string": "Quotation details",
            "type": "many2one"
        }
    }
}