{
    "id": 370,
    "name": "website",
    "description": "Website",
    "modelFields": {
        "display_name": {
            "string": "Display Name",
            "type": "char"
        },
        "cdn_url": {
            "string": "CDN Base URL",
            "type": "char"
        },
        "company_id": {
            "string": "Company",
            "type": "many2one"
        },
        "salesperson_id": {
            "string": "Salesperson",
            "type": "many2one"
        },
        "name": {
            "string": "Website Name",
            "type": "char"
        },
        "default_lang_code": {
            "string": "Default language code",
            "type": "char",
            "help": "This field is used to set/get locales for user"
        },
        "partner_id": {
            "string": "Public Partner",
            "type": "many2one",
            "help": "Partner-related data of the user"
        },
        "website_form_enable_metadata": {
            "string": "Write metadata",
            "type": "boolean",
            "help": "Enable writing metadata on form submit."
        },
        "language_ids": {
            "string": "Languages",
            "type": "many2many"
        },
        "write_uid": {
            "string": "Last Updated by",
            "type": "many2one"
        },
        "auto_redirect_lang": {
            "string": "Autoredirect Language",
            "type": "boolean",
            "help": "Should users be redirected to their browser's language"
        },
        "social_github": {
            "string": "GitHub Account",
            "type": "char"
        },
        "social_googleplus": {
            "string": "Google+ Account",
            "type": "char"
        },
        "currency_id": {
            "string": "Default Currency",
            "type": "many2one"
        },
        "is_default_website": {
            "string": "Default Website",
            "type": "boolean"
        },
        "google_management_client_id": {
            "string": "Google Client ID",
            "type": "char"
        },
        "social_youtube": {
            "string": "Youtube Account",
            "type": "char"
        },
        "create_uid": {
            "string": "Created by",
            "type": "many2one"
        },
        "default_lang_id": {
            "string": "Default Language",
            "type": "many2one"
        },
        "google_management_client_secret": {
            "string": "Google Client Secret",
            "type": "char"
        },
        "crm_default_team_id": {
            "string": "Default Sales Channels",
            "type": "many2one",
            "help": "Default sales channel for new leads created through the Contact Us form."
        },
        "__last_update": {
            "string": "Last Modified on",
            "type": "datetime"
        },
        "salesteam_id": {
            "string": "Sales Channel",
            "type": "many2one"
        },
        "user_id": {
            "string": "Public User",
            "type": "many2one"
        },
        "domain": {
            "string": "Website Domain",
            "type": "char"
        },
        "website_code": {
            "string": "Website Code",
            "type": "char",
            "help": "Unique code per website."
        },
        "id": {
            "string": "ID",
            "type": "integer"
        },
        "menu_id": {
            "string": "Main Menu",
            "type": "many2one"
        },
        "social_twitter": {
            "string": "Twitter Account",
            "type": "char"
        },
        "favicon": {
            "string": "Website Favicon",
            "type": "binary",
            "help": "This field holds the image used to display a favicon on the website."
        },
        "crm_default_user_id": {
            "string": "Default Salesperson",
            "type": "many2one",
            "help": "Default salesperson for new leads created through the Contact Us form."
        },
        "pricelist_id": {
            "string": "Default Pricelist",
            "type": "many2one"
        },
        "create_date": {
            "string": "Created on",
            "type": "datetime"
        },
        "cdn_filters": {
            "string": "CDN Filters",
            "type": "text",
            "help": "URL matching those filters will be rewritten using the CDN Base URL"
        },
        "write_date": {
            "string": "Last Updated on",
            "type": "datetime"
        },
        "social_facebook": {
            "string": "Facebook Account",
            "type": "char"
        },
        "channel_id": {
            "string": "Website Live Chat Channel",
            "type": "many2one"
        },
        "homepage_id": {
            "string": "Homepage",
            "type": "many2one"
        },
        "pricelist_ids": {
            "string": "Price list available for this Ecommerce/Website",
            "type": "one2many"
        },
        "social_linkedin": {
            "string": "LinkedIn Account",
            "type": "char"
        },
        "website_theme_id": {
            "string": "Theme",
            "type": "many2one",
            "help": "Choose theme for current website."
        },
        "cdn_activated": {
            "string": "Activate CDN for assets",
            "type": "boolean"
        },
        "google_analytics_key": {
            "string": "Google Analytics Key",
            "type": "char"
        }
    }
}