{
    "id": 740,
    "name": "wiz.requisition.request",
    "description": "wiz.requisition.request",
    "modelFields": {
        "partner_id": {
            "string": "Vendor",
            "type": "many2one"
        },
        "write_uid": {
            "string": "Last Updated by",
            "type": "many2one"
        },
        "create_date": {
            "string": "Created on",
            "type": "datetime"
        },
        "wiz_indent_line": {
            "string": "Indent Lines",
            "type": "one2many"
        },
        "display_name": {
            "string": "Display Name",
            "type": "char"
        },
        "requisition_type_id": {
            "string": "Agreement Type",
            "type": "many2one"
        },
        "write_date": {
            "string": "Last Updated on",
            "type": "datetime"
        },
        "id": {
            "string": "ID",
            "type": "integer"
        },
        "dummy_wiz_indent_line": {
            "string": "Indent Lines",
            "type": "one2many"
        },
        "branch_id": {
            "string": "Branch",
            "type": "many2one"
        },
        "purchase_indent_id": {
            "string": "Purchase Indent",
            "type": "many2one"
        },
        "create_uid": {
            "string": "Created by",
            "type": "many2one"
        },
        "category_id": {
            "string": "Category",
            "type": "many2one"
        },
        "__last_update": {
            "string": "Last Modified on",
            "type": "datetime"
        },
        "state": {
            "string": "State",
            "type": "selection"
        },
        "order_type": {
            "string": "Order Type",
            "type": "selection"
        }
    }
}