{
    "id": 741,
    "name": "wiz.indent.line",
    "description": "Wizard Indent Line",
    "modelFields": {
        "display_name": {
            "string": "Display Name",
            "type": "char"
        },
        "expected_date": {
            "string": "Expected Date",
            "type": "datetime"
        },
        "name": {
            "string": "Description",
            "type": "text"
        },
        "create_uid": {
            "string": "Created by",
            "type": "many2one"
        },
        "price_unit": {
            "string": "Unit Price",
            "type": "float"
        },
        "sequence": {
            "string": "Sequence",
            "type": "integer"
        },
        "__last_update": {
            "string": "Last Modified on",
            "type": "datetime"
        },
        "product_qty": {
            "string": "Quantity",
            "type": "float"
        },
        "purchase_indent_ids": {
            "string": "Purchase Indent",
            "type": "many2many"
        },
        "requisition_qty": {
            "string": "Requisition Quantity",
            "type": "float"
        },
        "partner_id": {
            "string": "Partner",
            "type": "many2one"
        },
        "remaining_qty": {
            "string": "Remaining Quantity",
            "type": "float"
        },
        "product_id": {
            "string": "Product",
            "type": "many2one"
        },
        "id": {
            "string": "ID",
            "type": "integer"
        },
        "write_uid": {
            "string": "Last Updated by",
            "type": "many2one"
        },
        "purchase_indent_line_id": {
            "string": "Indent Line Ref",
            "type": "many2one"
        },
        "wizard_indent_id": {
            "string": "Wiz Requisition Request",
            "type": "many2one"
        },
        "write_date": {
            "string": "Last Updated on",
            "type": "datetime"
        },
        "order_type": {
            "string": "Order Type",
            "type": "selection"
        },
        "create_date": {
            "string": "Created on",
            "type": "datetime"
        },
        "product_uom": {
            "string": "Product Unit of Measure",
            "type": "many2one"
        },
        "taxes_id": {
            "string": "Taxes",
            "type": "many2many"
        }
    }
}