{
    "id": 490,
    "name": "wizard.rabill.summary.lines",
    "description": "wizard.rabill.summary.lines",
    "modelFields": {
        "order_id": {
            "string": "Order Reference",
            "type": "many2one"
        },
        "final_total_payable": {
            "string": "Final Total Payable",
            "type": "float"
        },
        "write_uid": {
            "string": "Last Updated by",
            "type": "many2one"
        },
        "workorder_id": {
            "string": "WorkOrder",
            "type": "many2one"
        },
        "rabill_ids": {
            "string": "RA Bill",
            "type": "many2one"
        },
        "display_name": {
            "string": "Display Name",
            "type": "char"
        },
        "sub_project": {
            "string": "Sub Project",
            "type": "many2one"
        },
        "stage_id": {
            "string": "Stage",
            "type": "many2one"
        },
        "id": {
            "string": "ID",
            "type": "integer"
        },
        "contractor_id": {
            "string": "Contractor",
            "type": "many2one"
        },
        "project_wbs": {
            "string": "Project WBS",
            "type": "many2one"
        },
        "project_id": {
            "string": "Project",
            "type": "many2one"
        },
        "create_uid": {
            "string": "Created by",
            "type": "many2one"
        },
        "__last_update": {
            "string": "Last Modified on",
            "type": "datetime"
        },
        "write_date": {
            "string": "Last Updated on",
            "type": "datetime"
        },
        "create_date": {
            "string": "Created on",
            "type": "datetime"
        }
    }
}