{
    "id": 450,
    "name": "wizard.gantt",
    "description": "wizard.gantt",
    "modelFields": {
        "write_date": {
            "string": "Last Updated on",
            "type": "datetime"
        },
        "display_name": {
            "string": "Display Name",
            "type": "char"
        },
        "write_uid": {
            "string": "Last Updated by",
            "type": "many2one"
        },
        "create_date": {
            "string": "Created on",
            "type": "datetime"
        },
        "project_id": {
            "string": "Project",
            "type": "many2one"
        },
        "create_uid": {
            "string": "Created by",
            "type": "many2one"
        },
        "note": {
            "string": "Note",
            "type": "text"
        },
        "id": {
            "string": "ID",
            "type": "integer"
        },
        "__last_update": {
            "string": "Last Modified on",
            "type": "datetime"
        },
        "model": {
            "string": "Project",
            "type": "many2one"
        }
    }
}